<?xml version="1.0" encoding="UTF-8"?>
<svg width="65px" height="16px" viewBox="0 0 65 16" version="1.1" xmlns="http://www.w3.org/2000/svg" xmlns:xlink="http://www.w3.org/1999/xlink">
    <!-- Generator: sketchtool 64 (101010) - https://sketch.com -->
    <title>57AF8768-F44F-4ED5-B1AA-20E1CE628857</title>
    <desc>Created with sketchtool.</desc>
    <g id="Desktop" stroke="none" stroke-width="1" fill="none" fill-rule="evenodd">
        <g id="Provisional-Fixed-Deposit-Certificate-" transform="translate(-498.000000, -12.000000)" fill-rule="nonzero">
            <g id="SBM-Bank---Logo" transform="translate(498.000000, 12.000000)">
                <polygon id="Path" fill="#1C3969" points="5.22644628 15.645695 3.1338843 13.6837903 3.1338843 1.95199615 5.22644628 0"></polygon>
                <polygon id="Path" fill="#1C3969" points="2.09256198 12.7127465 0 10.7607504 0 4.88494468 2.09256198 2.93294853"></polygon>
                <polygon id="Path" fill="#00B2E3" points="6.2677686 12.7127465 8.36033058 10.7607504 8.36033058 4.88494468 6.2677686 2.93294853"></polygon>
                <path d="M26.7768595,7.46118326 C27.2270598,7.09018455 27.4737569,6.52732819 27.4413223,5.94516595 C27.4413223,4.56786917 26.4495868,3.89408369 24.4661157,3.89408369 L20.6578512,3.89408369 L20.6578512,11.7119769 L24.8826446,11.7119769 C26.9752066,11.7119769 28.1256198,10.8499278 28.1256198,9.3041847 C28.1426985,8.45649352 27.5905266,7.7019831 26.7768595,7.46118326 M24.614876,7.02520443 L22.1355372,7.02520443 L22.1355372,5.17229437 L24.5355372,5.17229437 C25.8347107,5.17229437 25.9438017,5.58845599 25.9438017,6.02443482 C25.9438017,6.70812891 25.5272727,7.01529582 24.6347107,7.01529582 M22.1355372,8.29350649 L24.7933884,8.29350649 C26.4297521,8.29350649 26.6479339,8.80875421 26.6479339,9.28436748 C26.6479339,10.0869649 26.1123967,10.413949 24.7834711,10.413949 L22.1355372,10.413949 L22.1355372,8.29350649 Z" id="Shape" fill="#1C3969"></path>
                <path d="M39.6694215,11.4246272 L39.6694215,11.4246272 C39.5783838,8.988987 39.3465927,6.56063513 38.9752066,4.15170755 L38.9752066,3.9039923 L37.6859504,3.9039923 L34.7107438,8.85829726 L31.7355372,3.9039923 L30.4363636,3.9039923 L30.4363636,4.15170755 C30.0649776,6.56063513 29.8331865,8.988987 29.7421488,11.4246272 L29.7421488,11.7218855 L31.1801653,11.7218855 L31.1801653,11.4444444 C31.2297521,9.75007215 31.3785124,7.798076 31.5867769,6.25233285 L34.2942149,10.6715729 L35.1966942,10.6715729 L37.8942149,6.26224146 C38.1024793,7.798076 38.2512397,9.75007215 38.3008264,11.4444444 L38.3008264,11.7218855 L39.6694215,11.7218855 L39.6694215,11.4246272 Z" id="Path" fill="#1C3969"></path>
                <path d="M16.7206612,7.25310245 L15.3619835,6.98556999 C14.3702479,6.77748918 13.9834711,6.53968254 13.9834711,5.99470899 C13.9834711,5.44973545 14.6677686,5.1029341 15.8280992,5.1029341 C16.5456292,5.11771415 17.254565,5.26206181 17.9206612,5.52900433 L18.9123967,4.67686388 L18.7338843,4.57777778 C17.8464514,4.13251541 16.8599107,3.92105664 15.8677686,3.96344396 C13.8842975,3.96344396 12.5652893,4.7957672 12.5652893,6.09379509 C12.5652893,7.23328523 13.3586777,7.93679654 14.9950413,8.23405483 L16.3933884,8.52140452 C17.7024793,8.76911977 17.7024793,9.25464165 17.7024793,9.51226551 C17.7024793,10.1761424 16.9586777,10.5823954 15.7190083,10.5823954 C14.8227294,10.5641092 13.9431348,10.33677 13.1504132,9.91851852 L12.2181818,10.7607504 L12.3669421,10.8598365 C13.3931451,11.5094622 14.5835035,11.853193 15.7983471,11.8507109 C17.8710744,11.8507109 19.1107438,10.9688312 19.1107438,9.5023569 C19.1107438,8.35295815 18.3669421,7.6989899 16.7107438,7.38191438" id="Path" fill="#1C3969"></path>
                <path d="M45.3024793,6.93602694 C44.7309779,6.94945906 44.1800032,7.15153725 43.7355372,7.51072631 L43.7355372,4.95430495 L43.0909091,4.95430495 L43.0909091,11.4444444 L43.0909091,11.4444444 C43.8057609,11.5894733 44.5333693,11.6625019 45.2628099,11.6624339 C46.5937705,11.6624339 47.6727273,10.5844286 47.6727273,9.25464165 C47.6727273,7.92485474 46.5937705,6.84684945 45.2628099,6.84684945 L45.3024793,6.93602694 Z M45.3024793,11.1570948 C44.7768908,11.1619312 44.2520857,11.1154705 43.7355372,11.0183742 L43.7355372,8.14487734 C44.1371089,7.70749076 44.708628,7.46535145 45.3024793,7.48100048 C45.7912958,7.45836933 46.2671721,7.64178877 46.6141299,7.98655669 C46.9610878,8.3313246 47.1472597,8.80577464 47.1272727,9.29427609 C47.1472597,9.78277755 46.9610878,10.2572276 46.6141299,10.6019955 C46.2671721,10.9467634 45.7912958,11.1301829 45.3024793,11.1075517 L45.3024793,11.1570948 Z" id="Shape" fill="#00B2E3"></path>
                <path d="M53.2165289,9.82934103 L53.2165289,6.93602694 L52.7305785,6.93602694 L52.661157,7.26301106 C52.1444003,7.00901695 51.5695635,6.89620215 50.9950413,6.93602694 C50.3406911,6.90884853 49.7038438,7.15113366 49.2333109,7.6062678 C48.762778,8.06140195 48.499785,8.68950877 48.5057851,9.34381914 C48.5303946,10.3198173 49.1264872,11.1903436 50.0280457,11.5669098 C50.9296042,11.943476 51.9684549,11.7558387 52.6809917,11.0877345 L52.8198347,11.6822511 L53.4347107,11.6822511 L53.4347107,11.6128908 C53.2994221,11.0276922 53.2262902,10.4298684 53.2165289,9.82934103 L53.2165289,9.82934103 Z M50.9256198,11.1075517 C50.4449722,11.1259476 49.9793458,10.9383503 49.6459225,10.5919716 C49.3124993,10.2455929 49.1430304,9.77341774 49.1801653,9.29427609 C49.1572973,8.80671962 49.3411524,8.33211128 49.6865898,7.98697846 C50.0320273,7.64184563 50.5070545,7.45815267 50.9950413,7.48100048 C51.5487057,7.48106467 52.0913688,7.63548431 52.5619835,7.92688793 L52.5619835,10.2058682 C52.2829859,10.8412096 51.6123058,11.2107736 50.9256198,11.1075517 L50.9256198,11.1075517 Z" id="Shape" fill="#00B2E3"></path>
                <path d="M56.7966942,6.93602694 C56.2029981,6.9544823 55.6317069,7.16678739 55.1702479,7.54045214 L55.1008264,6.93602694 L54.5454545,6.93602694 L54.5454545,11.6029822 L55.2,11.6029822 L55.2,8.14487734 C55.577817,7.72092988 56.119456,7.47921113 56.6876033,7.48100048 C57.6793388,7.48100048 58.1454545,7.92688793 58.1454545,8.85829726 L58.1454545,11.632708 L58.8,11.632708 L58.8,8.71957672 C58.8038539,8.20624001 58.5861379,7.71613565 58.2025352,7.3746129 C57.8189326,7.03309015 57.3066446,6.87326958 56.7966942,6.93602694 L56.7966942,6.93602694 Z" id="Path" fill="#00B2E3"></path>
                <path d="M61.4876033,8.83848004 L64.3438017,6.93602694 L63.3520661,6.93602694 C63.1239669,7.07474747 61.2396694,8.25387205 60.8727273,8.55113035 L60.8727273,4.95430495 L60.2181818,4.95430495 L60.2181818,11.6029822 L60.8727273,11.6029822 L60.8727273,9.02674363 C61.2495868,9.47263107 63.4115702,11.3849928 63.6694215,11.6128908 L63.6694215,11.6128908 L64.6016529,11.6128908 L61.4876033,8.83848004 Z" id="Path" fill="#00B2E3"></path>
            </g>
        </g>
    </g>
</svg>