<?xml version="1.0" encoding="UTF-8"?>
<svg width="140px" height="23px" viewBox="0 0 140 23" version="1.1" xmlns="http://www.w3.org/2000/svg" xmlns:xlink="http://www.w3.org/1999/xlink">
    <!-- Generator: sketchtool 63.1 (101010) - https://sketch.com -->
    <title>B107BC06-8E66-4651-8538-87CB618999A2</title>
    <desc>Created with sketchtool.</desc>
    <defs>
        <polygon id="path-1" points="0 0.00512041465 22.5465786 0.00512041465 22.5465786 22.4350168 0 22.4350168"></polygon>
        <path d="M0.00934561364,10.5661982 C0.00934561364,16.3961968 4.76001894,21.1223027 10.6203308,21.1223027 L10.6203308,21.1223027 C16.480602,21.1223027 21.2313161,16.3961968 21.2313161,10.5661982 L21.2313161,10.5661982 C21.2313161,4.73628132 16.480602,0.0101754448 10.6203308,0.0101754448 L10.6203308,0.0101754448 C4.76001894,0.0101754448 0.00934561364,4.73628132 0.00934561364,10.5661982" id="path-3"></path>
        <linearGradient x1="49.999962%" y1="84.8101095%" x2="49.999962%" y2="-24.5244399%" id="linearGradient-5">
            <stop stop-color="#0275AF" offset="0%"></stop>
            <stop stop-color="#FFFFFF" offset="100%"></stop>
        </linearGradient>
    </defs>
    <g id="Dashboard" stroke="none" stroke-width="1" fill="none" fill-rule="evenodd">
        <g id="Login" transform="translate(-15.000000, -17.000000)">
            <g id="Paisabazaar-logo-white" transform="translate(15.000000, 17.000000)">
                <g id="Group-16" transform="translate(116.823771, 0.000000)">
                    <g id="Group-3" transform="translate(0.000000, 0.035757)">
                        <g id="Fill-1-Clipped">
                            <mask id="mask-2" fill="white">
                                <use xlink:href="#path-1"></use>
                            </mask>
                            <g id="path-1"></g>
                            <path d="M22.5465786,11.2200543 C22.5465786,17.413917 17.4993351,22.435029 11.2733199,22.435029 C5.04722312,22.435029 -2.04052699e-05,17.413917 -2.04052699e-05,11.2200543 C-2.04052699e-05,5.02623246 5.04722312,0.00512041465 11.2733199,0.00512041465 C17.4993351,0.00512041465 22.5465786,5.02623246 22.5465786,11.2200543" id="Fill-1" fill="#0375AF" fill-rule="nonzero" mask="url(#mask-2)"></path>
                        </g>
                    </g>
                    <g id="Group-6" transform="translate(0.652969, 0.689601)">
                        <g id="Fill-4-Clipped">
                            <mask id="mask-4" fill="white">
                                <use xlink:href="#path-3"></use>
                            </mask>
                            <g id="path-3"></g>
                            <path d="M10.6203308,21.1223027 C16.480602,21.1223027 21.2313161,16.3961968 21.2313161,10.5661982 C21.2313161,4.73628132 16.480602,0.0101754448 10.6203308,0.0101754448 C4.76001894,0.0101754448 0.00934561364,4.73628132 0.00934561364,10.5661982 C0.00934561364,16.3961968 4.76001894,21.1223027 10.6203308,21.1223027 Z" id="Fill-4" fill="url(#linearGradient-5)" fill-rule="nonzero" mask="url(#mask-4)"></path>
                        </g>
                    </g>
                    <g id="Group-15" transform="translate(2.020214, 0.791764)" fill-rule="nonzero">
                        <path d="M9.21344622,13.693096 C4.14853172,13.693096 0.0425833055,10.6986547 0.0425833055,7.00484565 C0.0425833055,3.3110366 4.61792254,0.0101468391 9.21344622,0.0101468391 C13.8089699,0.0101468391 18.3843499,3.3110366 18.3843499,7.00484565 C18.3843499,10.6986547 14.2784015,13.693096 9.21344622,13.693096 Z" id="Fill-7" fill="#0391C4" opacity="0.600000024"></path>
                        <path d="M5.46982595,12.7747478 L6.1433631,12.5655995 C6.27473223,13.0362036 6.25424534,13.4612839 6.08173919,13.8407176 C5.90927384,14.2202331 5.61474418,14.5055951 5.19810938,14.6968444 C4.67614258,14.9364782 4.1783356,14.9582593 3.70468848,14.7623105 C3.23100054,14.56628 2.84823849,14.1494954 2.55623908,13.5117116 C2.36740871,13.0993813 2.27044286,12.7072385 2.26534155,12.335283 C2.26019942,11.9633685 2.36169523,11.6360788 2.56978818,11.3534139 C2.77792193,11.0707082 3.04596555,10.8540407 3.37404149,10.7034523 C3.78822766,10.5133063 4.17498914,10.4626743 4.53444838,10.5515153 C4.8938668,10.6403972 5.19900721,10.8607834 5.44999203,11.212674 L4.8659524,11.5983193 C4.6886306,11.3693105 4.49437243,11.2249336 4.28305545,11.1652704 C4.07169767,11.1055662 3.85838098,11.1252224 3.64286051,11.2241572 C3.31723321,11.3736422 3.10616111,11.6119683 3.0097258,11.9391354 C2.91320887,12.2663434 2.98083193,12.6828828 3.21243175,13.1887536 C3.4472964,13.7018167 3.71615624,14.0295559 4.01897045,14.1719304 C4.32174385,14.3143866 4.63121017,14.3130381 4.94724699,14.1679256 C5.20096612,14.0514188 5.37718603,13.8762704 5.47586591,13.6423169 C5.57446417,13.4085268 5.57250527,13.1192827 5.46982595,12.7747478" id="Fill-9" fill="#FFFFFF"></path>
                        <path d="M6.84849577,11.5237688 C7.07242321,12.012844 7.34662923,12.3301626 7.67111383,12.4756837 C7.99559843,12.621164 8.3195525,12.6197337 8.64277197,12.471352 C8.96354282,12.3240737 9.1744925,12.07925 9.27566183,11.7368811 C9.37674953,11.3945121 9.31263618,10.9728645 9.08324013,10.4717341 C8.86698508,9.99941366 8.59596229,9.69084023 8.27029417,9.54585036 C7.94458526,9.40090135 7.62250847,9.40147347 7.30406383,9.54768929 C6.98084436,9.69603012 6.76809901,9.94024079 6.66590942,10.2801987 C6.56367902,10.6202384 6.62456834,11.0346528 6.84849577,11.5237688 M6.18410018,11.8288279 C5.86026855,11.1215731 5.8167237,10.5076138 6.05354727,9.98686803 C6.25200892,9.55345129 6.58706346,9.22836831 7.05875168,9.0118234 C7.58308549,8.77112714 8.09040132,8.74640367 8.58073996,8.93761213 C9.07103777,9.12890231 9.45510577,9.52782879 9.73278069,10.1343507 C9.95781001,10.6257961 10.0611831,11.0462176 10.0429,11.395452 C10.0246577,11.7448089 9.91051058,12.0619641 9.70058117,12.3469582 C9.49052932,12.6318707 9.21922085,12.8508266 8.8864517,13.0035809 C8.35248661,13.2486906 7.84239567,13.2754574 7.35626051,13.0837176 C6.87008455,12.8920188 6.47940525,12.4737631 6.18410018,11.8288279" id="Fill-11" fill="#FFFFFF"></path>
                        <path d="M11.3895865,11.7499212 L9.64093656,7.93081929 L10.2191403,7.66539956 L10.4644933,8.20118372 C10.4985701,7.9592615 10.5888838,7.73572864 10.7355161,7.53058513 C10.8820667,7.32552336 11.0822424,7.16467777 11.3360432,7.04813011 C11.6185337,6.9184647 11.8770685,6.87089756 12.1116474,6.90534696 C12.3461856,6.93987809 12.5488508,7.0455556 12.7196837,7.22242036 C12.8172209,6.63800656 13.107792,6.23478924 13.5914376,6.01272752 C13.9697105,5.83905025 14.3086013,5.81040372 14.6081914,5.92678792 C14.9077408,6.04317213 15.1574197,6.31946202 15.3572281,6.75582105 L16.5575477,9.3773262 L15.9147001,9.67249582 L14.813142,7.26667741 C14.6945466,7.00775525 14.5882758,6.83097222 14.4942484,6.73632833 C14.4002209,6.64168443 14.2821968,6.58492261 14.1402169,6.56596114 C13.9982779,6.54695881 13.8530332,6.57151882 13.7046461,6.63964117 C13.43648,6.76276814 13.2546691,6.95434438 13.1592948,7.21428818 C13.063839,7.47427283 13.1062411,7.8007861 13.2862564,8.19395057 L14.302194,10.4127696 L13.6557143,10.7095739 L12.5195896,8.22823651 C12.3878532,7.94050436 12.2364053,7.74896898 12.0652051,7.65346691 C11.8939641,7.55800571 11.6886462,7.56519799 11.4492924,7.67508462 C11.2672774,7.75861317 11.1210532,7.88386513 11.0105382,8.05059531 C10.9000234,8.21740722 10.8523159,8.4090652 10.8674157,8.62548751 C10.8824748,8.84207328 10.9696053,9.1240843 11.1287664,9.47168403 L12.0360256,11.4531578 L11.3895865,11.7499212 Z" id="Fill-13" fill="#FFFFFF"></path>
                    </g>
                </g>
                <path d="M54.9465161,7.52607473 C55.459661,7.22492614 56.0126995,7.07437232 56.6059174,7.07437232 C57.4923552,7.07437232 58.1558054,7.48365598 58.5957373,8.30205954 C59.03571,9.12070875 59.2556759,10.3485598 59.2556759,11.9857763 C59.2556759,13.5307034 59.0289317,14.6893578 58.5757701,15.4619032 C58.1225268,16.2344077 57.439191,16.6206804 56.5261303,16.6206804 C56.0462232,16.6206804 55.5562304,16.517991 55.0564378,16.3124484 C54.5564001,16.1069467 54.0431327,15.7987147 53.5166763,15.3875885 L53.5166763,8.88150956 C53.9564448,8.27921236 54.4329628,7.82742806 54.9465161,7.52607473 L54.9465161,7.52607473 Z M49.7040017,0.756065979 L49.7040017,1.41441652 L49.8935472,1.4251031 C50.698687,1.48181157 51.1761441,1.60382691 51.3258369,1.79143573 C51.4755297,1.97904454 51.550417,2.55059224 51.550417,3.5063654 L51.550417,17.6506454 L53.1473034,17.6506454 L53.3968322,16.2172109 L53.5166763,16.2172109 C53.9688988,16.7411399 54.4681198,17.1340047 55.0138492,17.3958054 C55.5593337,17.657647 56.1482642,17.7887521 56.780314,17.7887521 C58.1577654,17.7887521 59.2621683,17.2079099 60.0940536,16.0458162 C60.9257754,14.8838862 61.3415751,13.3391229 61.3415751,11.4117719 C61.3415751,9.67591948 60.9788989,8.29423908 60.2537503,7.26677167 C59.5284385,6.2394271 58.5535162,5.72569339 57.3293509,5.72569339 C56.5508341,5.72569339 55.8436928,5.92767381 55.2083355,6.33122521 C54.5729782,6.735227 54.0090374,7.34075883 53.5166763,8.14806635 L53.5166763,0.756065979 L49.7040017,0.756065979 Z" id="Fill-1" fill="#FFFFFF" fill-rule="nonzero"></path>
                <path d="M68.1216134,15.720023 C67.3455873,16.2793691 66.6723781,16.5589808 66.1018632,16.5589808 C65.498437,16.5589808 64.9943162,16.3385752 64.5897863,15.8979278 C64.1851339,15.4571987 63.9828894,14.9026839 63.9828894,14.2345067 C63.9828894,13.3389223 64.3079179,12.635246 64.9578933,12.1233138 C65.607828,11.6116682 66.5098639,11.3556408 67.6639602,11.3556408 L68.1216134,11.3556408 L68.1216134,15.720023 Z M67.7136127,10.7078949 C65.544823,10.7078949 64.0061232,11.0979345 63.0974724,11.8777682 C62.3016834,12.5584336 61.9036459,13.4447645 61.9036459,14.5365151 C61.9036459,15.4722253 62.2089522,16.2504622 62.8195241,16.8708978 C63.4300959,17.4912107 64.1935454,17.8012443 65.1094237,17.8012443 C66.2509026,17.8012443 67.4060198,17.187196 68.5743259,15.9589356 C68.8320212,17.187196 69.4438589,17.8012443 70.4095938,17.8012443 C70.78109,17.8012443 71.2023613,17.7127218 71.6731627,17.5355129 L71.6135469,16.7485958 C71.3946427,16.8132886 71.2189394,16.845594 71.086233,16.845594 C70.7148593,16.845594 70.454469,16.6579851 70.305307,16.2823581 C70.1559818,15.9068129 70.081462,15.258371 70.081462,14.337278 L70.081462,9.1926937 C70.081462,6.88975656 68.9074393,5.73826751 66.5595981,5.73826751 C65.3789605,5.73826751 64.098936,6.06050265 62.7194839,6.70456347 L62.7194839,8.81776267 L64.0525909,8.81776267 L64.0624724,8.61598697 C64.1356038,7.87271703 64.3079179,7.38060215 64.5797823,7.139888 C65.0440505,6.74354287 65.5780609,6.54532937 66.1816095,6.54532937 C67.4749454,6.54532937 68.1216134,7.45508064 68.1216134,9.27433753 L68.1216134,10.7078949 L67.7136127,10.7078949 Z" id="Fill-4" fill="#FFFFFF" fill-rule="nonzero"></path>
                <path d="M73.3096814,17.5344647 L82.7485757,17.5344647 L82.7485757,16.7520106 L79.6897957,16.7468107 L75.6936596,16.7468107 L82.5375521,6.62334548 L82.5375521,5.97404372 L73.5914273,5.97404372 L73.5914273,8.49681321 L74.6480967,8.49681321 L74.658264,8.27329584 C74.6716163,8.06050601 74.6782721,7.80496986 74.6782721,7.50693307 C74.6782721,7.06698179 74.7621017,6.80972596 74.9298425,6.73520653 C75.0975834,6.66068709 75.6746315,6.62334548 76.6607012,6.62334548 L80.2279303,6.62334548 L73.3096814,16.8745174 L73.3096814,17.5344647 Z" id="Fill-6" fill="#FFFFFF" fill-rule="nonzero"></path>
                <path d="M89.8366029,15.720023 C89.0592702,16.2793691 88.3849994,16.5589808 87.8137085,16.5589808 C87.2090575,16.5589808 86.7041199,16.3385752 86.2988143,15.8979278 C85.8935493,15.4571987 85.6909782,14.9026839 85.6909782,14.2345067 C85.6909782,13.3389223 86.0165376,12.635246 86.6676563,12.1233138 C87.3186525,11.6116682 88.2223217,11.3556408 89.378133,11.3556408 L89.8366029,11.3556408 L89.8366029,15.720023 Z M89.4279897,10.7078949 C87.2555252,10.7078949 85.7142528,11.0979345 84.8040913,11.8777682 C84.0067913,12.5584336 83.6081823,13.4447645 83.6081823,14.5365151 C83.6081823,15.4722253 83.9140602,16.2504622 84.5256937,16.8708978 C85.1372864,17.4912107 85.9019201,17.8012443 86.8195132,17.8012443 C87.962748,17.8012443 89.1198252,17.187196 90.2899687,15.9589356 C90.5481541,17.187196 91.161135,17.8012443 92.1286258,17.8012443 C92.5005711,17.8012443 92.922455,17.7127218 93.3942772,17.5355129 L93.3345389,16.7485958 C93.1153079,16.8132886 92.9391147,16.845594 92.8063266,16.845594 C92.4341363,16.845594 92.1735418,16.6579851 92.0238491,16.2823581 C91.8745645,15.9068129 91.799759,15.258371 91.799759,14.337278 L91.799759,9.1926937 C91.799759,6.88975656 90.6238172,5.73826751 88.2721784,5.73826751 C87.0894584,5.73826751 85.8071065,6.06050265 84.4254086,6.70456347 L84.4254086,8.81776267 L85.7608022,8.81776267 L85.7706837,8.61598697 C85.8437742,7.87271703 86.0165376,7.38060215 86.2888919,7.139888 C86.7539359,6.74354287 87.2886813,6.54532937 87.8932916,6.54532937 C89.1888325,6.54532937 89.8366029,7.45508064 89.8366029,9.27433753 L89.8366029,10.7078949 L89.4279897,10.7078949 Z" id="Fill-8" fill="#FFFFFF" fill-rule="nonzero"></path>
                <path d="M100.918186,15.720023 C100.142078,16.2793691 99.4688279,16.5589808 98.8983946,16.5589808 C98.2950094,16.5589808 97.7908476,16.3385752 97.3864403,15.8979278 C96.9817061,15.4571987 96.7794209,14.9026839 96.7794209,14.2345067 C96.7794209,13.3389223 97.1043677,12.635246 97.7543023,12.1233138 C98.4042777,11.6116682 99.3063135,11.3556408 100.46041,11.3556408 L100.918186,11.3556408 L100.918186,15.720023 Z M100.510144,10.7078949 C98.341232,10.7078949 96.8026955,11.0979345 95.8939222,11.8777682 C95.0982556,12.5584336 94.7002181,13.4447645 94.7002181,14.5365151 C94.7002181,15.4722253 95.0054428,16.2504622 95.6160146,16.8708978 C96.2266682,17.4912107 96.9900769,17.8012443 97.9060776,17.8012443 C99.0474749,17.8012443 100.20247,17.187196 101.370735,15.9589356 C101.628512,17.187196 102.240431,17.8012443 103.206166,17.8012443 C103.57754,17.8012443 103.998852,17.7127218 104.469735,17.5355129 L104.409997,16.7485958 C104.191133,16.8132886 104.015348,16.845594 103.882805,16.845594 C103.511105,16.845594 103.251001,16.6579851 103.101879,16.2823581 C102.952431,15.9068129 102.877831,15.258371 102.877831,14.337278 L102.877831,9.1926937 C102.877831,6.88975656 101.703889,5.73826751 99.3560479,5.73826751 C98.1754102,5.73826751 96.8953858,6.06050265 95.5159744,6.70456347 L95.5159744,8.81776267 L96.8491631,8.81776267 L96.858963,8.61598697 C96.9320536,7.87271703 97.1043677,7.38060215 97.3762321,7.139888 C97.8406227,6.74354287 98.3743882,6.54532937 98.9781001,6.54532937 C100.271518,6.54532937 100.918186,7.45508064 100.918186,9.27433753 L100.918186,10.7078949 L100.510144,10.7078949 Z" id="Fill-10" fill="#FFFFFF" fill-rule="nonzero"></path>
                <path d="M106.772779,16.5162836 C106.623739,16.7048342 106.14865,16.8275046 105.34739,16.8843359 L105.158579,16.8951044 L105.158579,17.556362 L111.03984,17.556362 L111.03984,16.8951044 L110.612566,16.8843359 C109.817839,16.8346289 109.342546,16.7136373 109.187014,16.5217702 C109.031359,16.3296984 108.953451,15.7535649 108.953451,14.7935744 L108.953451,9.1290328 C109.582683,7.99826179 110.387333,7.4329377 111.367686,7.4329377 C111.612601,7.4329377 111.763355,7.49521466 111.819704,7.6195229 C111.875972,7.74411776 111.940487,8.13694164 112.013415,8.7983221 L112.023419,8.99035295 L113.126229,8.99035295 L113.126229,5.82204863 C112.88111,5.74384417 112.659225,5.70474194 112.460533,5.70474194 C111.016565,5.70474194 109.84781,6.5191329 108.953451,8.14746444 L108.953451,5.97133317 L105.158579,5.97133317 L105.158579,6.63279551 L105.34739,6.64335926 C106.14865,6.70751967 106.623739,6.83195075 106.772779,7.01689816 C106.921777,7.20188652 106.996256,7.7742531 106.996256,8.73432547 L106.996256,14.7935744 C106.996256,15.7535649 106.921777,16.3280197 106.772779,16.5162836" id="Fill-12" fill="#FFFFFF" fill-rule="nonzero"></path>
                <path d="M5.16356022,7.53647057 C5.64967389,7.23474875 6.17359867,7.08378547 6.73545706,7.08378547 C7.57497802,7.08378547 8.20298542,7.49388804 8.61968345,8.31392938 C9.03625897,9.13421638 9.24454674,10.3642784 9.24454674,12.0047705 C9.24454674,13.5527275 9.02988907,14.7136339 8.60081872,15.4876124 C8.17150338,16.2615909 7.52454959,16.6487644 6.65971233,16.6487644 C6.20516238,16.6487644 5.74118004,16.5457474 5.26784702,16.3398363 C4.79435067,16.1338842 4.308237,15.8251608 3.80958768,15.4131748 L3.80958768,8.8945668 C4.22624487,8.29100032 4.67752822,7.83823333 5.16356022,7.53647057 L5.16356022,7.53647057 Z M-2.44996389e-05,5.99850408 L-2.44996389e-05,6.65812391 L0.189561873,6.66889238 C0.993844184,6.73272523 1.47097465,6.8568697 1.62058578,7.04116199 C1.77011524,7.22565901 1.84500247,7.79663347 1.84500247,8.75416727 L1.80184227,21.7555976 L3.80203362,21.7555976 L3.80958768,16.2438208 C4.24425211,16.7688963 4.72371004,17.1626619 5.24816564,17.4251996 C5.77245792,17.6876963 6.33844041,17.8190061 6.94574562,17.8190061 C8.26942028,17.8190061 9.3305813,17.2370994 10.1300454,16.0726308 C10.9292236,14.908449 11.328976,13.3607376 11.328976,11.4297425 C11.328976,9.69045073 10.980387,8.30602704 10.2835356,7.27659427 C9.58643919,6.24736623 8.6496955,5.73260891 7.47330451,5.73260891 C6.72508554,5.73260891 6.04575139,5.93487595 5.43538372,6.33936907 C4.82460772,6.74390315 4.28259404,7.35058142 3.80958768,8.15960863 L3.80958768,5.99850408 L-2.44996389e-05,5.99850408 Z" id="Fill-15" fill="#FFFFFF" fill-rule="nonzero"></path>
                <path d="M18.7945549,15.720023 C18.0186514,16.2793691 17.3454013,16.5589808 16.7750498,16.5589808 C16.1714604,16.5589808 15.6673394,16.3385752 15.2628096,15.8979278 C14.8581571,15.4571987 14.6559126,14.9026839 14.6559126,14.2345067 C14.6559126,13.3389223 14.9809412,12.635246 15.6307941,12.1233138 C16.2808512,11.6116682 17.1830095,11.3556408 18.3369017,11.3556408 L18.7945549,11.3556408 L18.7945549,15.720023 Z M18.3867176,10.7078949 C16.2178871,10.7078949 14.6791465,11.0979345 13.7706182,11.8777682 C12.9747475,12.5584336 12.57671,13.4447645 12.57671,14.5365151 C12.57671,15.4722253 12.8820979,16.2504622 13.4925881,16.8708978 C14.1032825,17.4912107 14.8665687,17.8012443 15.7824469,17.8012443 C16.9240075,17.8012443 18.0791247,17.187196 19.2472266,15.9589356 C19.5050037,17.187196 20.1168822,17.8012443 21.0827396,17.8012443 C21.4541132,17.8012443 21.8753437,17.7127218 22.3462676,17.5355129 L22.2865701,16.7485958 C22.0677067,16.8132886 21.8919218,16.845594 21.7593379,16.845594 C21.3878825,16.845594 21.127574,16.6579851 20.9782487,16.2823581 C20.8290458,15.9068129 20.7544444,15.258371 20.7544444,14.337278 L20.7544444,9.1926937 C20.7544444,6.88975656 19.5805851,5.73826751 17.2327439,5.73826751 C16.0521062,5.73826751 14.7719593,6.06050265 13.392548,6.70456347 L13.392548,8.81776267 L14.7256141,8.81776267 L14.7354956,8.61598697 C14.8085454,7.87271703 14.9809412,7.38060215 15.252928,7.139888 C15.7170737,6.74354287 16.2510024,6.54532937 16.854592,6.54532937 C18.147887,6.54532937 18.7945549,7.45508064 18.7945549,9.27433753 L18.7945549,10.7078949 L18.3867176,10.7078949 Z" id="Fill-18" fill="#FFFFFF" fill-rule="nonzero"></path>
                <path d="M23.0681127,6.64320368 L23.2582299,6.65389026 C24.0656155,6.71760028 24.4207786,6.8194708 24.6150608,7.06395187 C24.9231437,7.45165766 24.9198363,7.78183608 24.9198363,8.73953365 L24.8643446,17.5398695 L26.9473039,17.5398695 L26.8783374,5.98342007 L23.0681127,5.98342007 L23.0681127,6.64320368 Z" id="Fill-20" fill="#FFFFFF" fill-rule="nonzero"></path>
                <polygon id="Fill-22" fill="#FFFFFF" fill-rule="nonzero" points="24.9198485 3.88704916 26.8917428 3.88704916 26.8917428 1.79067824 24.9198485 1.79067824"></polygon>
                <path d="M34.8472411,16.5160829 C34.441282,16.9034202 33.9206646,17.0969251 33.2852257,17.0969251 C32.5016048,17.0969251 31.7823771,16.9056313 31.1567379,16.4789052 C30.2092961,15.8325514 29.1976243,14.086258 29.1976243,14.086258 L29.1976243,15.8236664 C30.1568668,17.1752115 31.7391352,17.7445891 33.1158516,17.7445891 C34.4218864,17.7445891 35.48268,17.4205524 36.2980688,16.7721104 C37.1135393,16.1238733 37.5212949,15.2859391 37.5212949,14.2586764 C37.5212949,13.5146285 37.3128847,12.9052888 36.8963909,12.4305345 C36.4729146,11.9629046 35.7279213,11.5094415 34.6620238,11.0701454 L33.687714,10.6661436 C32.6992351,10.2632063 32.0425632,9.90968941 31.7179429,9.60575656 C31.3861362,9.30890717 31.2203145,8.91301244 31.2203145,8.41827709 C31.2203145,7.81745391 31.4231715,7.31903354 31.8292122,6.92317974 C32.2350487,6.52716218 32.7452129,6.32935813 33.3594596,6.32935813 C34.0088634,6.32935813 34.563086,6.50976067 35.0220051,6.87089331 C35.1773328,6.99831336 35.2901945,7.19468435 35.3609577,7.46025196 C35.4313533,7.72573768 35.4879474,8.20532347 35.5302501,8.89909122 L35.5302501,9.09022129 L36.7058244,9.09022129 L36.7058244,6.33996281 C35.5055871,5.90103515 34.3442635,5.68148943 33.2217308,5.68148943 C32.070942,5.68148943 31.1230917,5.98624117 30.3783844,6.59558085 C29.6334321,7.20500243 29.2611192,7.97734313 29.2611192,8.9125211 C29.2611192,9.70623497 29.5187737,10.3794075 30.0342053,10.9319568 C30.5495552,11.4917943 31.3825429,11.9948005 32.5334135,12.4410983 L33.602986,12.8556638 C34.2947742,13.1256943 34.7784379,13.4168934 35.0537322,13.7294656 C35.322044,14.049244 35.4562204,14.4789591 35.4562204,15.0187746 C35.4562204,15.629793 35.2532817,16.1287866 34.8472411,16.5160829" id="Fill-24" fill="#FFFFFF" fill-rule="nonzero"></path>
                <path d="M45.2434178,15.720023 C44.4674325,16.2793691 43.7941824,16.5589808 43.2238309,16.5589808 C42.6202415,16.5589808 42.1161206,16.3385752 41.7115499,15.8979278 C41.3070608,15.4571987 41.1047755,14.9026839 41.1047755,14.2345067 C41.1047755,13.3389223 41.4297223,12.635246 42.079657,12.1233138 C42.7296324,11.6116682 43.6316682,11.3556408 44.7856828,11.3556408 L45.2434178,11.3556408 L45.2434178,15.720023 Z M44.8354988,10.7078949 C42.6666682,10.7078949 41.1280501,11.0979345 40.2193585,11.8777682 C39.4234061,12.5584336 39.0255727,13.4447645 39.0255727,14.5365151 C39.0255727,15.4722253 39.3308791,16.2504622 39.9413693,16.8708978 C40.5520228,17.4912107 41.315309,17.8012443 42.231228,17.8012443 C43.3728704,17.8012443 44.5279059,17.187196 45.6960895,15.9589356 C45.9538665,17.187196 46.5656633,17.8012443 47.5315207,17.8012443 C47.9029761,17.8012443 48.3240024,17.7127218 48.7950487,17.5355129 L48.7353513,16.7485958 C48.5163654,16.8132886 48.340703,16.845594 48.2080375,16.845594 C47.8365412,16.845594 47.5762326,16.6579851 47.4271114,16.2823581 C47.2779087,15.9068129 47.2031847,15.258371 47.2031847,14.337278 L47.2031847,9.1926937 C47.2031847,6.88975656 46.0293254,5.73826751 43.681525,5.73826751 C42.5008466,5.73826751 41.2207404,6.06050265 39.8413291,6.70456347 L39.8413291,8.81776267 L41.1743953,8.81776267 L41.1841951,8.61598697 C41.2572857,7.87271703 41.4297223,7.38060215 41.7016683,7.139888 C42.1658548,6.74354287 42.6998653,6.54532937 43.3033323,6.54532937 C44.5966681,6.54532937 45.2434178,7.45508064 45.2434178,9.27433753 L45.2434178,10.7078949 L44.8354988,10.7078949 Z" id="Fill-25" fill="#FFFFFF" fill-rule="nonzero"></path>
            </g>
        </g>
    </g>
</svg>