<?xml version="1.0" encoding="UTF-8"?>
<svg width="48px" height="48px" viewBox="0 0 48 48" version="1.1" xmlns="http://www.w3.org/2000/svg" xmlns:xlink="http://www.w3.org/1999/xlink">
    <!-- Generator: sketchtool 64 (101010) - https://sketch.com -->
    <title>C944A81C-4926-4273-B716-DC91E8147BDC</title>
    <desc>Created with sketchtool.</desc>
    <g id="Page-1" stroke="none" stroke-width="1" fill="none" fill-rule="evenodd">
        <g id="Dashboard---Statement---Unbilled-Transaction---1440" transform="translate(-519.000000, -1185.000000)" fill-rule="nonzero">
            <g id="HDFC" transform="translate(495.000000, 1169.000000)">
                <g id="manage-your-card" transform="translate(24.000000, 16.000000)">
                    <path d="M11.2,12 C12.5254834,12 13.6,10.9254834 13.6,9.6 L13.6,6.4 C13.6,5.0745166 12.5254834,4 11.2,4 L6.4,4 C5.0745166,4 4,5.0745166 4,6.4 L4,9.6 C4,10.9254834 5.0745166,12 6.4,12 L11.2,12 Z M11.2,10.4 L8.8,10.4 L8.8,8.8 L12,8.8 L12,9.6 C12,10.0418278 11.6418278,10.4 11.2,10.4 Z M12,6.4 L12,7.2 L8.8,7.2 L8.8,5.6 L11.2,5.6 C11.6418278,5.6 12,5.9581722 12,6.4 Z M6.4,5.6 L7.2,5.6 L7.2,7.2 L5.6,7.2 L5.6,6.4 C5.6,5.9581722 5.9581722,5.6 6.4,5.6 Z M5.6,9.6 L5.6,8.8 L7.2,8.8 L7.2,10.4 L6.4,10.4 C5.9581722,10.4 5.6,10.0418278 5.6,9.6 Z" id="Shape" fill="#D90368"></path>
                    <path d="M6.4,16.8 C5.9581722,16.8 5.6,17.1581722 5.6,17.6 C5.6,18.0418278 5.9581722,18.4 6.4,18.4 L11.2,18.4 C11.6418278,18.4 12,18.0418278 12,17.6 C12,17.1581722 11.6418278,16.8 11.2,16.8 L6.4,16.8 Z" id="Shape" fill="#D90368"></path>
                    <path d="M14.4,18.4 L19.2,18.4 C19.6418278,18.4 20,18.0418278 20,17.6 C20,17.1581722 19.6418278,16.8 19.2,16.8 L14.4,16.8 C13.9581722,16.8 13.6,17.1581722 13.6,17.6 C13.6,18.0418278 13.9581722,18.4 14.4,18.4 Z" id="Shape" fill="#D90368"></path>
                    <path d="M8,21.6 L6.4,21.6 C5.9581722,21.6 5.6,21.9581722 5.6,22.4 C5.6,22.8418278 5.9581722,23.2 6.4,23.2 L8,23.2 C8.44182776,23.2 8.8,22.8418278 8.8,22.4 C8.8,21.9581722 8.44182776,21.6 8,21.6 Z" id="Shape" fill="#D90368"></path>
                    <path d="M13.6,21.6 L12,21.6 C11.5581722,21.6 11.2,21.9581722 11.2,22.4 C11.2,22.8418278 11.5581722,23.2 12,23.2 L13.6,23.2 C14.0418278,23.2 14.4,22.8418278 14.4,22.4 C14.4,21.9581722 14.0418278,21.6 13.6,21.6 Z" id="Shape" fill="#D90368"></path>
                    <path d="M29.6,11.2 C30.5224945,11.1970248 31.3982336,10.793601 32,10.0944 C32.87458,11.1046929 34.2848517,11.465181 35.5369683,10.9985058 C36.789085,10.5318308 37.6193984,9.33625664 37.6193984,8 C37.6193984,6.66374334 36.789085,5.46816921 35.5369683,5.00149413 C34.2848517,4.53481905 32.87458,4.89530712 32,5.9056 C31.0311258,4.79627247 29.4292531,4.49342153 28.1222668,5.17247357 C26.8152805,5.85152562 26.1422,7.33634118 26.4929072,8.76684088 C26.8436144,10.1973406 28.1271393,11.2024667 29.6,11.2 Z M34.4,6.4 C35.2836556,6.4 36,7.1163444 36,8 C36,8.8836556 35.2836556,9.6 34.4,9.6 C33.5163444,9.6 32.8,8.8836556 32.8,8 C32.8,7.1163444 33.5163444,6.4 34.4,6.4 Z M29.6,6.4 C30.4836556,6.4 31.2,7.1163444 31.2,8 C31.2,8.8836556 30.4836556,9.6 29.6,9.6 C28.7163444,9.6 28,8.8836556 28,8 C28,7.1163444 28.7163444,6.4 29.6,6.4 Z" id="Shape" fill="#D90368"></path>
                    <path d="M48,32 C48.001483,29.3828389 47.3568087,26.8057907 46.1232,24.4976 L46.112,24.4752 C45.0057804,22.4206644 43.4662497,20.6310964 41.6,19.2304 L41.6,5.6 C41.5964731,2.50866747 39.0913326,0.003526912 36,0 L5.6,0 C2.50866747,0.003526912 0.003526912,2.50866747 -5.32907052e-15,5.6 L-5.32907052e-15,22.4 C0.003526912,25.4913326 2.50866747,27.9964731 5.6,28 L16.5264,28 C15.5014447,31.8666389 15.9841593,35.9782915 17.8768,39.5024 L17.888,39.5248 C20.664213,44.740811 26.091182,48.0001122 32,48.0001122 C37.908818,48.0001122 43.335787,44.740811 46.112,39.5248 L46.1232,39.5024 C47.3568087,37.1942093 48.001483,34.6171611 48,32 Z M17.6408,32.8 L23.2216,32.8 C23.261327,34.6851962 23.4923787,36.5614865 23.9112,38.4 L19.12,38.4 C18.2492281,36.6541062 17.7457886,34.74817 17.6408,32.8 L17.6408,32.8 Z M46.3608,31.2 L40.7784,31.2 C40.738673,29.3148038 40.5076213,27.4385135 40.0888,25.6 L44.88,25.6 C45.7507719,27.3458938 46.2542114,29.25183 46.3592,31.2 L46.3608,31.2 Z M39.1808,31.2 L32.8,31.2 L32.8,25.6 L38.4136,25.6 C38.8738482,27.4328539 39.1305995,29.3108679 39.1792,31.2 L39.1808,31.2 Z M31.2,17.7 L31.2,24 L26.0544,24 C27.2184,20.5952 29.088,18.192 31.2,17.7 Z M31.2,25.6 L31.2,31.2 L24.8208,31.2 C24.8694005,29.3108679 25.1261518,27.4328539 25.5864,25.6 L31.2,25.6 Z M32.8,24 L32.8,17.7 C34.912,18.192 36.7816,20.5952 37.9456,24 L32.8,24 Z M24.3504,24 L20.0352,24 C21.7897804,21.3883269 24.3486072,19.4204739 27.3232,18.3952 C25.950691,20.0346622 24.9378882,21.9441608 24.3504,24 Z M19.12,25.6 L23.912,25.6 C23.4931787,27.4385135 23.262127,29.3148038 23.2224,31.2 L17.6408,31.2 C17.7457886,29.25183 18.2492281,27.3458938 19.12,25.6 Z M24.8216,32.8 L31.2,32.8 L31.2,38.4 L25.5864,38.4 C25.1261518,36.5671461 24.8694005,34.6891321 24.8208,32.8 L24.8216,32.8 Z M31.2,40 L31.2,46.3 C29.088,45.808 27.2184,43.4048 26.0544,40 L31.2,40 Z M32.8,46.3 L32.8,40 L37.9456,40 C36.7816,43.4048 34.912,45.808 32.8,46.3 Z M32.8,38.4 L32.8,32.8 L39.1792,32.8 C39.1305995,34.6891321 38.8738482,36.5671461 38.4136,38.4 L32.8,38.4 Z M40.7784,32.8 L46.3592,32.8 C46.2542114,34.74817 45.7507719,36.6541062 44.88,38.4 L40.088,38.4 C40.5070905,36.5615142 40.7384103,34.6852235 40.7784,32.8 Z M43.9648,24 L39.6496,24 C39.0621118,21.9441608 38.049309,20.0346622 36.6768,18.3952 C39.6513928,19.4204739 42.2102196,21.3883269 43.9648,24 Z M5.6,26.4 C3.39195748,26.3973551 1.6026449,24.6080426 1.6,22.4 L1.6,5.6 C1.6026449,3.39195748 3.39195748,1.6026449 5.6,1.6 L36,1.6 C38.2080426,1.6026449 39.9973551,3.39195748 40,5.6 L40,18.1648 C36.2500734,15.9822427 31.7727819,15.4216828 27.6005221,16.612377 C23.4282622,17.8030711 19.9211958,20.642235 17.888,24.4752 L17.8768,24.4976 C17.5541358,25.1128019 17.2716773,25.7482667 17.0312,26.4 L5.6,26.4 Z M20.0352,40 L24.3504,40 C24.9378882,42.0558392 25.950691,43.9653378 27.3232,45.6048 C24.3486072,44.5795261 21.7897804,42.6116731 20.0352,40 L20.0352,40 Z M36.6752,45.6048 C38.0482812,43.96548 39.0616345,42.0559714 39.6496,40 L43.9648,40 C42.2102196,42.6116731 39.6513928,44.5795261 36.6768,45.6048 L36.6752,45.6048 Z" id="Shape" fill="#1B1DC7"></path>
                </g>
            </g>
        </g>
    </g>
</svg>