<?xml version="1.0" encoding="UTF-8"?>
<svg width="110px" height="85px" viewBox="0 0 110 85" version="1.1" xmlns="http://www.w3.org/2000/svg" xmlns:xlink="http://www.w3.org/1999/xlink">
    <title>1A59E858-C58A-4035-9910-91CD4E23326F</title>
    <defs>
        <filter x="-60.0%" y="-120.0%" width="220.0%" height="340.0%" filterUnits="objectBoundingBox" id="filter-1">
            <feGaussianBlur stdDeviation="10" in="SourceGraphic"></feGaussianBlur>
        </filter>
    </defs>
    <g id="Landing" stroke="none" stroke-width="1" fill="none" fill-rule="evenodd">
        <g id="Landing---Desktop---3" transform="translate(-511.000000, -835.000000)">
            <g id="03-Feature" transform="translate(150.000000, 690.000000)">
                <g id="Card" transform="translate(0.000000, 150.000000)">
                    <g id="3" transform="translate(391.000000, 0.000000)">
                        <g id="icon2">
                            <rect id="Shadow" fill="#50E3C2" opacity="0.848005022" filter="url(#filter-1)" x="0" y="25" width="50" height="25" rx="12.5"></rect>
                            <rect id="icon-bd" fill="#50E3C2" x="0" y="0" width="50" height="50" rx="16"></rect>
                            <path d="M25,16.8181818 C25,16.3665455 25.3665455,16 25.8181818,16 C30.337,16 34,19.663 34,24.1818182 C34,24.6334545 33.6334545,25 33.1818182,25 L32.3235455,25 C32.3497273,25.2691818 32.3636364,25.5424545 32.3636364,25.8181818 C32.3636364,30.337 28.7006364,34 24.1818182,34 C19.663,34 16,30.337 16,25.8181818 C16,21.2993636 19.663,17.6363636 24.1818182,17.6363636 C24.4575455,17.6363636 24.7308182,17.6502727 25,17.6764545 L25,16.8181818 Z M25,19.3234545 C24.7324545,19.2899091 24.4591818,19.2727273 24.1818182,19.2727273 C20.5670909,19.2727273 17.6363636,22.2034545 17.6363636,25.8181818 C17.6363636,29.4329091 20.5670909,32.3636364 24.1818182,32.3636364 C27.7965455,32.3636364 30.7272727,29.4329091 30.7272727,25.8181818 C30.7272727,25.5408182 30.7100909,25.2675455 30.6765455,25 L25.8181818,25 C25.3665455,25 25,24.6334545 25,24.1818182 L25,19.3234545 Z M26.6363636,17.6870909 L26.6363636,23.3636364 L32.3129091,23.3636364 C31.9439091,20.4026364 29.5973636,18.0560909 26.6363636,17.6870909 L26.6363636,17.6870909 Z" id="Fill-971" fill="#FFFFFF"></path>
                        </g>
                    </g>
                </g>
            </g>
        </g>
    </g>
</svg>