<?xml version="1.0" encoding="UTF-8"?>
<svg width="92px" height="83px" viewBox="0 0 92 83" version="1.1" xmlns="http://www.w3.org/2000/svg" xmlns:xlink="http://www.w3.org/1999/xlink">
    <title>43A12179-A5C2-4175-B259-A3023FBD7E53</title>
    <g id="Acquisition---Desktop" stroke="none" stroke-width="1" fill="none" fill-rule="evenodd">
        <g id="Password-Setup" transform="translate(-1053.000000, -304.000000)">
            <g id="3" transform="translate(1053.000000, 304.000000)">
                <path d="M80.6568564,65.9822581 C80.7039171,65.0915965 80.6627775,64.2074721 80.6552136,63.3211914 C80.6486764,62.5568236 80.6704441,61.783112 80.7408469,61.0111118 C80.7350627,61.0019393 80.7291758,60.9929721 80.7234943,60.9836968 C80.1212547,60.129657 79.6392509,59.1643487 79.3235166,58.1274055 C78.8114966,57.4865248 78.3718986,56.7852353 78.0857356,55.9776744 C77.8377344,55.2776513 77.7331057,54.5261181 77.7401563,53.7599021 C77.7172934,53.6325474 77.7033976,53.5059798 77.6986744,53.3839644 C77.6841626,53.0042276 77.7509375,52.6182617 77.8872251,52.2563224 C78.0460335,51.3838006 78.3234689,50.5228814 78.6752773,49.726923 C79.6221037,47.5847558 81.0183508,45.6700542 81.828376,43.4633711 C82.9660804,40.3644521 82.3104826,37.2555048 80.4690245,34.968117 C78.633419,32.6878482 76.0080501,31.2536787 73.3715919,30.2140317 C70.5040744,29.083412 67.4479378,28.393246 64.3603133,28.0203202 C63.008115,27.856994 61.6417814,27.7630096 60.2678153,27.7580469 C58.6350328,27.7520231 57.0156325,28.0038233 55.3782637,28.1896359 C54.0381471,28.3417702 52.5959688,28.5237153 51.319136,28.138605 C50.0619831,27.7593474 49.0951688,26.8116312 48.2167602,25.847247 C46.8213687,24.3154652 45.6781882,22.5123401 44.1897364,21.082004 C43.2159058,20.1463695 42.0073879,19.3547236 40.6235649,19.2811378 C38.0909824,19.1465957 35.9287246,21.4459284 34.1745769,23.2793776 C33.0433412,24.4616784 31.9378776,25.6743033 30.7409966,26.7799038 C29.3676124,28.0484197 27.8668051,28.9583505 26.1474651,29.4275538 C22.8162204,30.3365263 19.4628658,29.7010533 16.1238176,30.0752797 C12.7551981,30.4527576 9.41272734,32.1697702 7.4118106,35.386358 C5.54574405,38.3862956 5.27881597,42.0216377 5.56456832,45.3364882 C5.71304043,47.0576764 6.01354416,48.7377592 6.38588813,50.3962796 C6.75788984,52.0542525 7.23256937,53.6701959 7.73223382,55.2763507 C7.94905514,55.973533 8.07610182,56.7326301 8.43694587,57.3549261 C8.66437722,57.7471211 8.93527552,58.1132359 9.20572887,58.4695964 C9.78349692,59.230747 10.5642932,59.7376674 11.1972677,60.4363556 C12.1742129,61.5145753 12.912569,62.8043456 13.5199767,64.1715006 C13.6877865,64.5489443 13.8462526,64.9316245 13.9995163,65.3170427 C14.1632532,65.7287465 14.3218904,66.1430173 14.4793297,66.558041 C15.0779071,68.1372257 15.6660799,69.7270548 16.4561856,71.1950737 C17.2683671,72.7039925 18.3279337,73.9868149 19.6157873,75.0301241 C22.2576189,77.17058 25.4204035,78.5662453 28.6617367,79.4991074 C32.1139701,80.4925837 35.7894935,80.9106193 39.4634767,80.5709269 C41.1833301,80.4119132 42.9074274,80.0549367 44.5826159,79.46738 C45.3745699,79.1896707 46.1515671,78.8470007 46.9055303,78.4450855 C47.8130995,77.9613361 48.6487942,77.3117963 49.4844204,76.6864884 C51.1362668,75.450316 52.7662086,74.1269701 54.5956192,73.2459603 C56.6170715,72.2726088 58.7633116,72.1495666 60.8399019,72.4199857 C63.0875876,72.7127886 65.1182809,73.5830857 67.0930148,74.5993223 C67.158489,74.608974 67.2238264,74.6190706 67.289369,74.6278667 C68.0782427,74.7355415 68.8755016,74.7973878 69.6783052,74.809846 C70.9063661,74.7856825 72.1439075,74.6425154 73.3629669,74.3316754 C73.9224241,74.1577735 74.4645972,73.9445459 74.9934221,73.6632087 C75.8039608,73.1579654 76.56672,72.5619207 77.2796805,71.8984167 C78.1485059,71.018502 78.9341966,70.0423441 79.6229593,68.9976658 C79.9088486,68.510973 80.1590059,68.0043607 80.3611443,67.477247 C80.5020525,66.9852834 80.5981247,66.4856531 80.6568564,65.9822581" id="Fill-1" fill="#E4E4E6"></path>
                <path d="M69.5333584,59.0995248 C69.5333584,59.0995248 66.3349445,64.0037593 67.1565039,68.5241842 C67.9779949,73.0446433 69.7964532,76.340293 69.7964532,76.340293 C69.7964532,76.340293 73.1889623,73.5966392 73.0548651,69.8326075 C72.9206994,66.0685416 69.5333584,59.0995248 69.5333584,59.0995248" id="Fill-2" fill="#797CBD"></path>
                <path d="M83.8821376,64.5183463 C83.8821376,64.5183463 82.0501259,70.0793423 78.0068106,72.261417 C73.9636321,74.4435258 70.2541224,75.0820449 70.2541224,75.0820449 C70.2541224,75.0820449 70.2776356,70.7188882 73.3008126,68.472503 C76.3240581,66.2261521 83.8821376,64.5183463 83.8821376,64.5183463" id="Fill-3" fill="#797CBD"></path>
                <path d="M80.1707112,73.9364685 C80.1707112,73.9364685 76.7934326,78.7192695 72.2889913,79.6244086 C67.7844814,80.5295135 64.050329,80.0561004 64.050329,80.0561004 C64.050329,80.0561004 65.3479712,75.8903931 68.8956949,74.6255736 C72.4434871,73.3608225 80.1707112,73.9364685 80.1707112,73.9364685" id="Fill-4" fill="#797CBD"></path>
                <path d="M79.811202,55.0172946 C79.811202,55.0172946 81.5401594,60.6112844 79.5089869,64.7323268 C77.4778487,68.8535404 74.8244487,71.5232662 74.8244487,71.5232662 C74.8244487,71.5232662 72.315619,67.9535694 73.4780688,64.3709694 C74.640587,60.7884036 79.811202,55.0172946 79.811202,55.0172946" id="Fill-5" fill="#797CBD"></path>
                <path d="M64.2050302,65.0919388 C64.204996,65.0919388 60.7345202,67.5991256 61.1340053,72.4600985 C61.533422,77.3211399 63.8880296,81.9290805 63.860512,82.1257085 C63.8330628,82.3223708 67.6192386,76.702643 67.2545612,73.3072931 C66.8899866,69.9118748 64.2050302,65.0919388 64.2050302,65.0919388" id="Fill-6" fill="#797CBD"></path>
                <path d="M12.3211448,64.9477449 C12.3211448,64.9477449 15.5666535,69.8209365 20.0447752,70.8485703 C24.5228283,71.8762383 28.2684807,71.5048184 28.2684807,71.5048184 C28.2684807,71.5048184 27.0850162,67.3052617 23.5730928,65.9441646 C20.0611694,64.5831017 12.3211448,64.9477449 12.3211448,64.9477449" id="Fill-7" fill="#454887"></path>
                <path d="M22.9591822,53.8986198 C22.9591822,53.8986198 27.34705,57.7751179 27.7578981,62.3512968 C28.1687463,66.9273731 27.2926992,70.5880082 27.2926992,70.5880082 C27.2926992,70.5880082 23.2923374,68.8458738 22.4202263,65.1817476 C21.5481152,61.5176899 22.9591822,53.8986198 22.9591822,53.8986198" id="Fill-8" fill="#454887"></path>
                <path d="M30.1505307,61.0232278 C30.1505307,61.0232278 33.2139233,66.0129587 32.2693901,70.5093228 C31.3247884,75.0056868 29.4172058,78.2505795 29.4172058,78.2505795 C29.4172058,78.2505795 26.1008152,75.4153371 26.3375218,71.6563708 C26.5742968,67.8973362 30.1505307,61.0232278 30.1505307,61.0232278" id="Fill-9" fill="#454887"></path>
                <path d="M12.6227095,53.8929725 C12.6227095,53.8929725 18.4451575,54.5101004 21.4313021,58.0018305 C24.4175836,61.4935264 25.8246119,64.9846747 25.8246119,64.9846747 C25.8246119,64.9846747 21.5548577,65.8824895 18.7209844,63.4014855 C15.8871452,60.9203788 12.6227095,53.8929725 12.6227095,53.8929725" id="Fill-10" fill="#454887"></path>
                <path d="M15.7267967,72.2073742 C15.7267967,72.2073742 16.6621916,76.3853344 21.286766,77.935119 C25.9113746,79.4849379 31.0744257,79.1382976 31.2442548,79.2411466 C31.4141523,79.3439613 27.7429072,73.6484573 24.4789165,72.6446448 C21.2148573,71.6406954 15.7267967,72.2073742 15.7267967,72.2073742" id="Fill-11" fill="#454887"></path>
                <path d="M66.2462309,79.7958805 C66.2462309,81.4993739 64.8651459,82.8804589 63.1616183,82.8804589 L31.7677747,82.8804589 C30.0642129,82.8804589 28.6831964,81.4993739 28.6831964,79.7958805 L28.6831964,18.9807026 C28.6831964,17.2770723 30.0642129,15.89609 31.7677747,15.89609 L63.1616183,15.89609 C64.8651459,15.89609 66.2462309,17.2770723 66.2462309,18.9807026 L66.2462309,79.7958805" id="Fill-12" fill="#454887"></path>
                <path d="M61.9588504,76.9573867 L32.9704742,76.9573867 C31.2669124,76.9573867 29.8858616,75.6693278 29.8858616,74.0805255 L29.8858616,20.7625391 C29.8858616,19.1737026 31.2669124,17.8856779 32.9704742,17.8856779 L61.9588504,17.8856779 C63.6625149,17.8856779 65.0435315,19.1737026 65.0435315,20.7625391 L65.0435315,74.0805255 C65.0435315,75.6693278 63.6625149,76.9573867 61.9588504,76.9573867 Z" id="Fill-13" fill="#FFFFFF"></path>
                <polygon id="Fill-31" fill="#797CBD" points="31.4054054 30.6116204 62.4054054 30.6116204 62.4054054 22.4324324 31.4054054 22.4324324"></polygon>
                <polygon id="Fill-31-Copy" fill="#797CBD" points="32 44.4 40.4 44.4 40.4 36 32 36"></polygon>
                <polygon id="Fill-31-Copy-4" fill="#797CBD" points="32 55 40.4 55 40.4 47 32 47"></polygon>
                <polygon id="Fill-31-Copy-7" fill="#797CBD" points="32 69 40.4 69 40.4 61 32 61"></polygon>
                <rect id="Rectangle" fill="#454887" x="32" y="33" width="16" height="1"></rect>
                <rect id="Rectangle-Copy" fill="#454887" x="32" y="58" width="16" height="1"></rect>
                <polygon id="Fill-31-Copy-2" fill="#797CBD" points="43 44.4 51.4 44.4 51.4 36 43 36"></polygon>
                <polygon id="Fill-31-Copy-5" fill="#454887" points="43 55 51.4 55 51.4 47 43 47"></polygon>
                <g id="Group-8" transform="translate(47.247252, 51.262134) rotate(12.000000) translate(-47.247252, -51.262134) translate(43.747252, 48.262134)">
                    <path d="M6.82959279,3.46516013 C6.89530992,3.76866386 6.70254101,4.06797978 6.39903229,4.13368692 L1.33559386,5.2299291 C1.03207516,5.29564124 0.732759237,5.10287233 0.667052091,4.7993686 L0.012850696,1.77763849 C-0.052861442,1.4741148 0.139902482,1.17481884 0.443426173,1.1091117 L5.50686461,0.0128495506 C5.81036833,-0.0528625874 6.10968425,0.139926294 6.17539639,0.443430019 L6.82959279,3.46516013" id="Fill-42" fill="#FFD412"></path>
                    <polyline id="Fill-43" fill="#000000" points="6.41177041 1.53528474 0.249239693 2.86947324 0.0351174524 1.88048185 6.19765816 0.546278375 6.41177041 1.53528474"></polyline>
                    <polyline id="Fill-44" fill="#797CBD" transform="translate(3.258506, 3.288116) rotate(-2.000000) translate(-3.258506, -3.288116) " points="5.90190319 3.12607649 0.719843935 4.03753722 0.615109741 3.4355899 5.74444812 2.53869533 5.84917613 3.14064266"></polyline>
                    <text id="XXXX-XXXX-XXX-X-6843" transform="translate(3.246117, 3.226635) rotate(-12.000000) translate(-3.246117, -3.226635) " font-family="OpenSans-Bold, Open Sans" font-size="0.428658928" font-weight="bold" fill="#FFFFFF">
                        <tspan x="0.746117151" y="2.72663484">XXXX XXXX XXX X 6843</tspan>
                    </text>
                    <g id="Group-2" transform="translate(0.920740, 4.293382)">
                        <path d="M0.31707128,0.0805865908 C0.294879395,0.0805865908 0.272343102,0.0829325615 0.249771868,0.0878191687 C0.0788204811,0.124840584 -0.0297779986,0.293455983 0.00723842484,0.464402379 C0.0393682412,0.612782533 0.170602843,0.714173392 0.3164773,0.714173392 C0.338679168,0.714173392 0.361225444,0.711827421 0.383801669,0.706930831 C0.457380296,0.691003187 0.519418744,0.65068743 0.563253457,0.596310823 C0.483999577,0.554023453 0.423154081,0.478488186 0.402649298,0.383820779 C0.381570501,0.286438036 0.407720588,0.189828965 0.465730954,0.11786756 C0.420758196,0.0938687783 0.369880579,0.0805865908 0.31707128,0.0805865908" id="Fill-46" fill="#7D7FAB"></path>
                        <path d="M0.712517093,-8.38879077e-14 C0.690310234,-8.38879077e-14 0.667768949,0.00235096217 0.645187733,0.00723257789 C0.571599123,0.0231751961 0.509565667,0.0634809701 0.465730954,0.11786756 C0.544979842,0.16015493 0.605835322,0.23570018 0.626335113,0.330372578 C0.647418901,0.427745338 0.621268814,0.524349419 0.563253457,0.596310823 C0.608221224,0.620294631 0.659088858,0.633571827 0.711898156,0.633571827 C0.734100024,0.633571827 0.756651292,0.631220864 0.7792375,0.626329266 C0.950188887,0.589332808 1.05878737,0.420737374 1.02176595,0.249771013 C0.989626153,0.10139585 0.858396542,-8.38879077e-14 0.712517093,-8.38879077e-14" id="Fill-47" fill="#6F72B2"></path>
                    </g>
                </g>
                <polygon id="Fill-31-Copy-8" fill="#797CBD" points="43 69 51.4 69 51.4 61 43 61"></polygon>
                <polygon id="Fill-31-Copy-3" fill="#797CBD" points="54 44.4 62.4 44.4 62.4 36 54 36"></polygon>
                <polygon id="Fill-31-Copy-6" fill="#797CBD" points="54 55 62.4 55 62.4 47 54 47"></polygon>
                <polygon id="Fill-31-Copy-9" fill="#797CBD" points="54 69 62.4 69 62.4 61 54 61"></polygon>
                <path d="M73.7651926,55.4333253 L66.3528528,47.1081081 L66.3528528,61.9599254 L60.1984754,55.8156048 C59.3765141,54.9950024 58.2617002,54.534001 57.0992825,54.5340168 C55.326555,54.5339928 53.7283711,55.6001022 53.0499744,57.2352111 C52.3715778,58.8703201 52.7465699,60.7524148 54.0000895,62.0038621 L61.3941441,69.3858341 C59.1148213,72.4198714 58.7482174,76.4792247 60.4471857,79.8713719 L61.3941441,81.7623486 L61.3941441,83 L76.2702703,83 L76.2702703,62.0114427 C76.2702703,59.5864537 75.3789129,57.2457772 73.7651926,55.4333253 L73.7651926,55.4333253 Z" id="Path" fill="#FDC8A2" fill-rule="nonzero"></path>
                <path d="M49.5001301,17.4773625 C49.5001301,18.3506715 48.5888645,19.0586693 47.4647136,19.0586693 C46.3406312,19.0586693 45.4292971,18.3506715 45.4292971,17.4773625 C45.4292971,16.6039166 46.3406312,15.89609 47.4647136,15.89609 C48.5888645,15.89609 49.5001301,16.6039166 49.5001301,17.4773625" id="Fill-14" fill="#454887"></path>
                <path d="M49.3618916,79.9275135 C49.3618916,80.9753063 48.5125407,81.8247257 47.4647136,81.8247257 C46.4169208,81.8247257 45.5675357,80.9753063 45.5675357,79.9275135 C45.5675357,78.8797549 46.4169208,78.0303356 47.4647136,78.0303356 C48.5125407,78.0303356 49.3618916,78.8797549 49.3618916,79.9275135" id="Fill-15" fill="#FFFFFF"></path>
                <path d="M72.6190589,1.29334016 C72.4998551,1.4139088 72.3069523,1.42053618 72.1879076,1.30815065 C72.0689583,1.19576512 72.0690219,1.00696241 72.1881621,0.886393774 L72.9700515,0.0949967787 C73.0891917,-0.0256029757 73.2822218,-0.0322614761 73.4011711,0.080092939 C73.5201203,0.192540698 73.5200567,0.381374524 73.4008528,0.501974278 L72.6190589,1.29334016" id="Fill-22" fill="#FFD412"></path>
                <path d="M71.0398148,2.89181585 C70.9207064,3.0124156 70.7277082,3.01898076 70.6086635,2.90662635 C70.4896824,2.79424082 70.4898097,2.60543811 70.6089499,2.48486947 L71.3908074,1.69347247 C71.5100113,1.57287272 71.7030095,1.56621422 71.8219588,1.67859975 C71.9409399,1.79101639 71.9408126,1.97985022 71.8216406,2.10041886 L71.0398148,2.89181585" id="Fill-23" fill="#FFD412"></path>
                <path d="M72.1470168,2.04967113 C72.0280675,1.9372856 72.0281948,1.74848288 72.147335,1.62791424 C72.2664115,1.50728338 72.4594098,1.5006871 72.5784863,1.61307263 L73.3594211,2.35067268 C73.4783067,2.46308932 73.4782431,2.65189204 73.3591347,2.77249179 C73.2400263,2.89306043 73.0469963,2.89968782 72.9280152,2.7873334 L72.1470168,2.04967113" id="Fill-24" fill="#FFD412"></path>
                <path d="M70.5696501,0.559816111 C70.4507327,0.447399466 70.4507963,0.258534526 70.5699684,0.137997001 C70.6889494,0.0174283608 70.8820431,0.0107698604 71.0010242,0.123124276 L71.7820226,0.860817665 C71.9009401,0.973203194 71.9009082,1.16200591 71.7816726,1.28257455 C71.6626278,1.4031743 71.4696296,1.40980169 71.3505849,1.29741616 L70.5696501,0.559816111" id="Fill-25" fill="#FFD412"></path>
                <path d="M4.63461994,57.0307465 C3.81674027,57.0445924 3.13986227,56.4052208 3.12570164,55.6054851 C3.11154102,54.8057806 3.76550744,54.1439132 4.58332346,54.1300984 C5.40126677,54.1162835 6.07814477,54.755624 6.09224176,55.5553597 C6.10643421,56.3550332 5.45253143,57.0169317 4.63461994,57.0307465 Z M4.59395189,54.7312614 C4.1150681,54.73932 3.73222201,55.126851 3.74055928,55.595124 C3.74880108,56.0633659 4.14510773,56.4377355 4.62408698,56.4296768 C5.10293894,56.4215248 5.48578504,56.0339939 5.47757505,55.5657208 C5.46923779,55.09751 5.07283568,54.7231716 4.59395189,54.7312614 L4.59395189,54.7312614 Z" id="Fill-26" fill="#5B5FA6"></path>
                <path d="M19.8841914,6.22004122 C19.06628,6.23382493 18.3894019,5.59448444 18.3752731,4.79481099 C18.3611125,3.9950442 19.0150153,3.33320793 19.8329268,3.3193931 C20.6507746,3.30557827 21.3276526,3.94488765 21.3418133,4.74462332 C21.3559421,5.544359 20.7020393,6.20619527 19.8841914,6.22004122 Z M19.8434916,3.920525 C19.3646714,3.92858365 18.9818253,4.3161146 18.9900671,4.78441875 C18.9983408,5.25266068 19.3946792,5.62699908 19.873563,5.61890931 C20.3523832,5.61078843 20.7353565,5.2232886 20.7270829,4.75501556 C20.7188093,4.28674252 20.3224072,3.91240412 19.8434916,3.920525 L19.8434916,3.920525 Z" id="Fill-27" fill="#FFD412"></path>
                <path d="M1.10591681,9.77989144 C1.25162808,9.69152629 1.44048948,9.73135284 1.52764894,9.86878553 C1.61477658,10.0062805 1.56742599,10.189327 1.42174654,10.2776921 L0.465379118,10.8576351 C0.319731494,10.9460624 0.130901911,10.9062359 0.0437106305,10.7688343 C-0.0435442931,10.6313705 0.00393358652,10.4482618 0.149613032,10.3599277 L1.10591681,9.77989144" id="Fill-28" fill="#FFD412"></path>
                <path d="M3.03755371,8.60843098 C3.1832968,8.52006583 3.37209456,8.55992349 3.45925402,8.69732507 C3.54650894,8.83475776 3.49903106,9.01789764 3.3533198,9.10620055 L2.39701602,9.6861746 C2.25127293,9.77460198 2.06247516,9.73483766 1.97528388,9.59734274 C1.88812443,9.45987893 1.93553866,9.27680129 2.08128175,9.18843614 L3.03755371,8.60843098" id="Fill-29" fill="#FFD412"></path>
                <path d="M1.75307341,9.15968636 C1.84036015,9.29711905 1.79281863,9.48019669 1.647171,9.56853072 C1.50145974,9.65692698 1.31266198,9.61710044 1.22550252,9.47969886 L0.653094944,8.57744095 C0.565903663,8.43994603 0.6133179,8.25693061 0.758997346,8.16856546 C0.904708613,8.08020032 1.09350637,8.11999575 1.1807613,8.25739733 L1.75307341,9.15968636" id="Fill-30" fill="#FFD412"></path>
                <path d="M2.90908977,10.9820619 C2.99628105,11.1194635 2.94883499,11.30251 2.80318737,11.3909063 C2.65757156,11.4792403 2.46864652,11.4394449 2.38139159,11.3020122 L1.80911131,10.3997231 C1.72192003,10.2623527 1.76936608,10.0792128 1.91501371,9.99087878 C2.06072498,9.90254475 2.24952274,9.94234018 2.33677766,10.0798351 L2.90908977,10.9820619" id="Fill-31" fill="#FFD412"></path>
                <path d="M6.27110917,26.7155382 C6.41678861,26.627142 6.60565002,26.6669374 6.69280948,26.8044012 C6.77993711,26.941865 6.73258652,27.1249426 6.58690707,27.2133078 L5.63057147,27.7932818 C5.48489203,27.881647 5.29606244,27.8418516 5.20890298,27.7044189 C5.12161624,27.5669862 5.16909412,27.3838774 5.31480539,27.2955123 L6.27110917,26.7155382" id="Fill-32" fill="#5B5FA6"></path>
                <path d="M8.20274606,25.5440778 C8.34845733,25.4556504 8.53722327,25.4955392 8.62441455,25.6329096 C8.71166947,25.7703734 8.66419159,25.9535133 8.51848033,26.0417851 L7.56220837,26.6217903 C7.41643346,26.7102176 7.2276357,26.6704222 7.14044442,26.5329584 C7.05331678,26.3954946 7.10069919,26.2124169 7.24647411,26.1240518 L8.20274606,25.5440778" id="Fill-33" fill="#5B5FA6"></path>
                <path d="M6.91823394,26.095302 C7.00552068,26.2327347 6.95801098,26.4158124 6.81229972,26.5041464 C6.66662027,26.5925115 6.47785433,26.5527472 6.39063123,26.4152834 L5.8182873,25.5130255 C5.73109602,25.3755617 5.77847843,25.1925152 5.9241897,25.10415 C6.06990097,25.015816 6.25866691,25.0556114 6.34592183,25.193013 L6.91823394,26.095302" id="Fill-34" fill="#5B5FA6"></path>
                <path d="M8.0742503,27.9176464 C8.16144158,28.0551103 8.11402734,28.2381257 7.9683479,28.3264908 C7.8227321,28.414856 7.63383887,28.3750605 7.54658395,28.2375967 L6.97430366,27.3353699 C6.88711238,27.1979372 6.93449479,27.0148285 7.08020606,26.9264944 C7.22588551,26.8381293 7.41471509,26.8779558 7.50193819,27.0154196 L8.0742503,27.9176464" id="Fill-35" fill="#5B5FA6"></path>
                <path d="M89.0787855,49.2031908 C89.2245286,49.1147945 89.4133263,49.1545899 89.5005176,49.2920226 C89.5876452,49.4294864 89.540231,49.612533 89.3945834,49.7008981 L88.4382796,50.2808722 C88.2925683,50.3692684 88.1037706,50.3294419 88.0165157,50.1920092 C87.9293244,50.0545454 87.9768341,49.8714988 88.1224499,49.7831337 L89.0787855,49.2031908" id="Fill-36" fill="#FFD412"></path>
                <path d="M91.0104224,48.0316681 C91.1561018,47.9433029 91.3449314,47.9831295 91.4321545,48.1205622 C91.5193458,48.2580882 91.4718997,48.4410725 91.3261566,48.5294376 L90.369821,49.1094428 C90.2241098,49.197808 90.0353438,49.1580125 89.9481844,49.0205487 C89.8609931,48.8830849 89.9083755,48.7000695 90.0541504,48.6116421 L91.0104224,48.0316681" id="Fill-37" fill="#FFD412"></path>
                <path d="M89.7259421,48.5828923 C89.8131334,48.7203873 89.7656555,48.9034338 89.619976,48.9917678 C89.4742648,49.080133 89.2855306,49.0403686 89.1982757,48.902936 L88.6259636,48.0006469 C88.5387723,47.8632142 88.5861866,47.6801366 88.7318978,47.5917403 C88.8775773,47.5034374 89.0664387,47.5432017 89.1535345,47.6806655 L89.7259421,48.5828923" id="Fill-38" fill="#FFD412"></path>
                <path d="M90.8818948,50.4052056 C90.9691497,50.5426695 90.9216718,50.7257782 90.7759924,50.8141434 C90.6302811,50.9024774 90.4414834,50.862682 90.3542921,50.7252182 L89.7819482,49.8229914 C89.6948523,49.6855275 89.7421711,49.502481 89.8879142,49.4141159 C90.0335618,49.3257507 90.2223278,49.3655462 90.3095827,49.5030411 L90.8818948,50.4052056" id="Fill-39" fill="#FFD412"></path>
                <path d="M90.7818801,7.21986291 C91.578312,7.4023805 92.0744113,8.18444315 91.8877774,8.96314543 C91.701048,9.74187883 90.9012749,10.2269226 90.1048748,10.0444361 C89.3083793,9.86188741 88.8123755,9.07985587 88.9990093,8.30112247 C89.1856114,7.52238908 89.9854164,7.03740756 90.7818801,7.21986291 Z M90.2451764,9.45904814 C90.7114588,9.5659264 91.1797778,9.28194447 91.2890533,8.82593054 C91.3983606,8.36997884 91.1078609,7.91209804 90.6415467,7.80521977 C90.1752006,7.69837262 89.7069453,7.98235455 89.5976379,8.43830625 C89.488267,8.89432018 89.7788303,9.35216987 90.2451764,9.45904814 L90.2451764,9.45904814 Z" id="Fill-40" fill="#5B5FA6"></path>
            </g>
        </g>
    </g>
</svg>