<?xml version="1.0" encoding="UTF-8"?>
<svg width="32px" height="32px" viewBox="0 0 32 32" version="1.1" xmlns="http://www.w3.org/2000/svg" xmlns:xlink="http://www.w3.org/1999/xlink">
    <!-- Generator: sketchtool 64 (101010) - https://sketch.com -->
    <title>E53EC92A-83A2-4CCE-9EFC-41C82556661F</title>
    <desc>Created with sketchtool.</desc>
    <g id="Page-1" stroke="none" stroke-width="1" fill="none" fill-rule="evenodd">
        <g id="Support" transform="translate(-16.000000, -205.000000)" fill-rule="nonzero">
            <g id="Group" transform="translate(0.000000, 199.000000)">
                <g id="envelope" transform="translate(16.000000, 6.000000)">
                    <path d="M14.4,10.1317333 L17.6,10.1317333 C17.8949333,10.1317333 18.1333333,9.89333333 18.1333333,9.5984 C18.1333333,9.30346667 17.8949333,9.06506667 17.6,9.06506667 L14.4,9.06506667 C14.1050667,9.06506667 13.8666667,9.30346667 13.8666667,9.5984 C13.8666667,9.89333333 14.1050667,10.1317333 14.4,10.1317333 Z" id="Path" fill="#D90368"></path>
                    <path d="M22.4,17.5984 L19.2,17.5984 C18.9050667,17.5984 18.6666667,17.8368 18.6666667,18.1317333 C18.6666667,18.4266667 18.9050667,18.6650667 19.2,18.6650667 L22.4,18.6650667 C22.6949333,18.6650667 22.9333333,18.4266667 22.9333333,18.1317333 C22.9333333,17.8368 22.6949333,17.5984 22.4,17.5984 Z" id="Path" fill="#D90368"></path>
                    <path d="M9.6,14.3984 L12.2666667,14.3984 C12.5616,14.3984 12.8,14.16 12.8,13.8650667 C12.8,13.5701333 12.5616,13.3317333 12.2666667,13.3317333 L9.6,13.3317333 C9.30506667,13.3317333 9.06666667,13.5701333 9.06666667,13.8650667 C9.06666667,14.16 9.30506667,14.3984 9.6,14.3984 Z" id="Path" fill="#D90368"></path>
                    <path d="M16,13.8650667 C16,14.16 16.2384,14.3984 16.5333333,14.3984 L20.2666667,14.3984 C20.5616,14.3984 20.8,14.16 20.8,13.8650667 C20.8,13.5701333 20.5616,13.3317333 20.2666667,13.3317333 L16.5333333,13.3317333 C16.2384,13.3317333 16,13.5706667 16,13.8650667 Z" id="Path" fill="#D90368"></path>
                    <path d="M14.4,14.3984 C14.5386667,14.3984 14.6773333,14.3397333 14.7786667,14.2437333 C14.8746667,14.1424 14.9333333,14.0037333 14.9333333,13.8650667 C14.9333333,13.7205333 14.8746667,13.5872 14.7786667,13.4864 C14.5813333,13.2890667 14.2186667,13.2890667 14.0213333,13.4864 C13.9248,13.5824 13.8666667,13.7205333 13.8666667,13.8650667 C13.8666667,14.0037333 13.9248,14.1424 14.0213333,14.2437333 C14.1221333,14.3397333 14.2613333,14.3984 14.4,14.3984 Z" id="Path" fill="#D90368"></path>
                    <path d="M17.0666667,17.5984 L11.7333333,17.5984 C11.4384,17.5984 11.2,17.8368 11.2,18.1317333 C11.2,18.4266667 11.4384,18.6650667 11.7333333,18.6650667 L17.0666667,18.6650667 C17.3616,18.6650667 17.6,18.4266667 17.6,18.1317333 C17.6,17.8368 17.3616,17.5984 17.0666667,17.5984 Z" id="Path" fill="#D90368"></path>
                    <path d="M9.6,18.6650667 C9.744,18.6650667 9.87733333,18.6064 9.97866667,18.5104 C10.0746667,18.4090667 10.1333333,18.2704 10.1333333,18.1317333 C10.1333333,17.9930667 10.0746667,17.8538667 9.97866667,17.7530667 C9.78133333,17.5557333 9.41866667,17.5557333 9.22133333,17.7530667 C9.12,17.8538667 9.06666667,17.9930667 9.06666667,18.1317333 C9.06666667,18.2704 9.12,18.4090667 9.22133333,18.5104 C9.32213333,18.6064 9.46133333,18.6650667 9.6,18.6650667 Z" id="Path" fill="#D90368"></path>
                    <path d="M22.4,14.3984 C22.5386667,14.3984 22.6773333,14.3397333 22.7786667,14.2437333 C22.8746667,14.1424 22.9333333,14.0037333 22.9333333,13.8650667 C22.9333333,13.7205333 22.8746667,13.5872 22.7786667,13.4864 C22.576,13.2890667 22.2186667,13.2890667 22.0213333,13.4864 C21.9248,13.5872 21.8666667,13.7205333 21.8666667,13.8650667 C21.8666667,14.0037333 21.92,14.1424 22.0213333,14.2437333 C22.1221333,14.3397333 22.2613333,14.3984 22.4,14.3984 Z" id="Path" fill="#D90368"></path>
                    <path d="M28.8,11.1866667 L28.8,4.7984 L21.9386667,4.7984 L17.3557333,0.531733333 C16.5952,-0.175466667 15.4042667,-0.176 14.6437333,0.532266667 L10.0613333,4.7984 L3.2,4.7984 L3.2,11.1866667 L0,14.1653333 L0,15.0869333 L0,30.7765333 L0,31.9984 L32,31.9984 L32,30.7765333 L32,15.0869333 L32,14.1653333 L28.8,11.1866667 Z M10.6917333,22.8085333 C10.6816,22.8496 10.6666667,22.8885333 10.6666667,22.9317333 C10.6666667,22.9749333 10.6816,23.0144 10.6917333,23.0549333 L1.06666667,30.3882667 L1.06666667,15.4757333 L10.6917333,22.8085333 Z M11.9136,23.4650667 L20.0864,23.4650667 L29.8864,30.9317333 L2.1136,30.9317333 L11.9136,23.4650667 Z M30.9333333,15.4757333 L30.9333333,30.3882667 L21.1466667,22.9322667 L30.9333333,15.4757333 Z M30.6464,14.3632 C30.6298667,14.3738667 30.6117333,14.3797333 30.5962667,14.3914667 L28.8,15.7594667 L28.8,12.6437333 L30.6464,14.3632 Z M15.3701333,1.31306667 C15.7232,0.985066667 16.2768,0.9856 16.6288,1.31253333 L20.3728,4.7984 L11.6272,4.7984 L15.3701333,1.31306667 Z M4.26666667,5.86506667 L8.91573333,5.86506667 L23.0842667,5.86506667 L27.7333333,5.86506667 L27.7333333,10.1936 L27.7333333,16.5717333 L20.0864,22.3984 L11.9136,22.3984 L4.26666667,16.5728 L4.26666667,10.1941333 L4.26666667,5.86506667 Z M3.2,15.76 L1.40373333,14.3914667 C1.38826667,14.3797333 1.3696,14.3738667 1.3536,14.3632 L3.2,12.6437333 L3.2,15.76 Z" id="Shape" fill="#1B1DC7"></path>
                </g>
            </g>
        </g>
    </g>
</svg>