<?xml version="1.0" encoding="UTF-8"?>
<svg width="79px" height="64px" viewBox="0 0 79 64" version="1.1" xmlns="http://www.w3.org/2000/svg" xmlns:xlink="http://www.w3.org/1999/xlink">
    <!-- Generator: sketchtool 64 (101010) - https://sketch.com -->
    <title>1E7404F3-55C1-4789-972C-B84DCD296FE0</title>
    <desc>Created with sketchtool.</desc>
    <defs>
        <linearGradient x1="50%" y1="0%" x2="50%" y2="100%" id="linearGradient-1">
            <stop stop-color="#262B4D" offset="0%"></stop>
            <stop stop-color="#29305D" offset="100%"></stop>
        </linearGradient>
        <linearGradient x1="50%" y1="0%" x2="50%" y2="100%" id="linearGradient-2">
            <stop stop-color="#525D97" offset="0%"></stop>
            <stop stop-color="#29305D" offset="100%"></stop>
        </linearGradient>
        <linearGradient x1="50%" y1="0%" x2="50%" y2="100%" id="linearGradient-3">
            <stop stop-color="#E4E7FC" offset="0%"></stop>
            <stop stop-color="#FFFFFF" offset="100%"></stop>
        </linearGradient>
        <linearGradient x1="50%" y1="0%" x2="50%" y2="100%" id="linearGradient-4">
            <stop stop-color="#4A253E" offset="0%"></stop>
            <stop stop-color="#7D5151" offset="100%"></stop>
        </linearGradient>
        <linearGradient x1="50%" y1="0%" x2="50%" y2="100%" id="linearGradient-5">
            <stop stop-color="#4A253E" offset="0%"></stop>
            <stop stop-color="#7D5151" offset="100%"></stop>
        </linearGradient>
        <linearGradient x1="50%" y1="0%" x2="50%" y2="100%" id="linearGradient-6">
            <stop stop-color="#525D97" offset="0%"></stop>
            <stop stop-color="#29305D" offset="100%"></stop>
        </linearGradient>
        <linearGradient x1="50%" y1="0%" x2="50%" y2="100%" id="linearGradient-7">
            <stop stop-color="#525D97" offset="0%"></stop>
            <stop stop-color="#29305D" offset="100%"></stop>
        </linearGradient>
        <linearGradient x1="50%" y1="0%" x2="50%" y2="100%" id="linearGradient-8">
            <stop stop-color="#525D97" offset="0%"></stop>
            <stop stop-color="#29305D" offset="100%"></stop>
        </linearGradient>
        <linearGradient x1="50%" y1="0%" x2="59.846979%" y2="75.4084073%" id="linearGradient-9">
            <stop stop-color="#5C3838" offset="0%"></stop>
            <stop stop-color="#7D5151" offset="100%"></stop>
        </linearGradient>
        <linearGradient x1="50%" y1="0%" x2="50%" y2="100%" id="linearGradient-10">
            <stop stop-color="#262B4D" offset="0%"></stop>
            <stop stop-color="#29305D" offset="100%"></stop>
        </linearGradient>
        <linearGradient x1="50%" y1="0%" x2="50%" y2="100%" id="linearGradient-11">
            <stop stop-color="#525D97" offset="0%"></stop>
            <stop stop-color="#29305D" offset="100%"></stop>
        </linearGradient>
        <rect id="path-12" x="0" y="0" width="27.7745534" height="1.29415482" rx="0.298651112"></rect>
        <linearGradient x1="50%" y1="0%" x2="50%" y2="100%" id="linearGradient-14">
            <stop stop-color="#C4E4FF" offset="0%"></stop>
            <stop stop-color="#92C4FF" offset="100%"></stop>
        </linearGradient>
        <linearGradient x1="50%" y1="0%" x2="50%" y2="100%" id="linearGradient-15">
            <stop stop-color="#525D97" offset="0%"></stop>
            <stop stop-color="#29305D" offset="100%"></stop>
        </linearGradient>
        <linearGradient x1="50%" y1="0%" x2="50%" y2="100%" id="linearGradient-16">
            <stop stop-color="#F87171" offset="0%"></stop>
            <stop stop-color="#F3ABAB" offset="100%"></stop>
        </linearGradient>
        <linearGradient x1="50%" y1="0%" x2="50%" y2="100%" id="linearGradient-17">
            <stop stop-color="#29305D" offset="0%"></stop>
            <stop stop-color="#525D97" offset="100%"></stop>
        </linearGradient>
        <linearGradient x1="50%" y1="0%" x2="50%" y2="100%" id="linearGradient-18">
            <stop stop-color="#F87171" offset="0%"></stop>
            <stop stop-color="#F3ABAB" offset="100%"></stop>
        </linearGradient>
        <linearGradient x1="50%" y1="0%" x2="50%" y2="100%" id="linearGradient-19">
            <stop stop-color="#01D1B2" offset="0%"></stop>
            <stop stop-color="#08AC94" offset="100%"></stop>
        </linearGradient>
        <linearGradient x1="50%" y1="0%" x2="50%" y2="100%" id="linearGradient-20">
            <stop stop-color="#262B4D" offset="0%"></stop>
            <stop stop-color="#29305D" offset="100%"></stop>
        </linearGradient>
        <linearGradient x1="50%" y1="0%" x2="50%" y2="100%" id="linearGradient-21">
            <stop stop-color="#262B4D" offset="0%"></stop>
            <stop stop-color="#29305D" offset="100%"></stop>
        </linearGradient>
        <linearGradient x1="50%" y1="0%" x2="50%" y2="100%" id="linearGradient-22">
            <stop stop-color="#01D1B2" offset="0%"></stop>
            <stop stop-color="#08AC94" offset="100%"></stop>
        </linearGradient>
        <linearGradient x1="50%" y1="0%" x2="50%" y2="100%" id="linearGradient-23">
            <stop stop-color="#C4E4FF" offset="0%"></stop>
            <stop stop-color="#92C4FF" offset="100%"></stop>
        </linearGradient>
        <linearGradient x1="50%" y1="0%" x2="50%" y2="100%" id="linearGradient-24">
            <stop stop-color="#525D97" offset="0%"></stop>
            <stop stop-color="#29305D" offset="100%"></stop>
        </linearGradient>
    </defs>
    <g id="OKYC-Desktop" stroke="none" stroke-width="1" fill="none" fill-rule="evenodd">
        <g id="02-How-It-Works" transform="translate(-475.000000, -250.000000)">
            <g id="Steps" transform="translate(475.000000, 250.000000)">
                <g id="illustration-1">
                    <rect id="Rectangle" fill="#F3F7FC" x="0" y="8.56133188" width="78.147041" height="30.0642119" rx="15.032106"></rect>
                    <g id="Card-6" transform="translate(45.096318, 2.687860)">
                        <rect id="Rectangle" stroke="#29305D" stroke-width="0.5" x="0" y="0" width="24.8875927" height="14.235703" rx="1.19460445"></rect>
                        <g id="Group-4" transform="translate(2.588310, 2.488759)" fill="#B5BFFF">
                            <rect id="Rectangle" x="0" y="0" width="8.36223113" height="9.25818447"></rect>
                            <rect id="Rectangle" x="10.75144" y="0.796402965" width="8.95953336" height="1"></rect>
                            <rect id="Rectangle-Copy-6" x="10.75144" y="2.78741038" width="5.97302224" height="1"></rect>
                            <rect id="Rectangle-Copy-7" x="10.75144" y="4.77841779" width="1.99100741" height="1"></rect>
                            <rect id="Rectangle-Copy-8" x="10.75144" y="6.7694252" width="3.98201483" height="1"></rect>
                        </g>
                    </g>
                    <rect id="Rectangle-Copy" fill="#F3F7FC" x="3.08606149" y="58.0378661" width="73.0699721" height="4.97751853" rx="2.48875927"></rect>
                    <g id="Chat-5" transform="translate(18.815020, 17.023113)">
                        <path d="M2.3892089,0 L13.4393,0 C14.7588237,-2.17904461e-15 15.8285089,1.06968526 15.8285089,2.3892089 C15.8285089,3.70873253 14.7588237,4.77841779 13.4393,4.77841779 L12.2853822,4.77841779 L12.2853822,4.77841779 L10.1233198,4.77841779 L2.3892089,4.77841779 C1.06968526,4.77841779 1.6159504e-16,3.70873253 0,2.3892089 C-1.6159504e-16,1.06968526 1.06968526,-2.0169665e-16 2.3892089,0 Z" id="Rectangle" stroke="#29305D" stroke-width="0.5"></path>
                        <circle id="Oval" fill="#D7DCFE" cx="3.18561186" cy="2.58830964" r="1"></circle>
                        <rect id="Rectangle" fill="#D7DCFE" x="4.87796816" y="1.6923563" width="6.66987483" height="1"></rect>
                        <rect id="Rectangle-Copy-26" fill="#D7DCFE" x="4.87796816" y="2.78741038" width="3.78291408" height="1"></rect>
                    </g>
                    <g id="Man-10" transform="translate(44.299915, 20.806027)">
                        <g id="Group-40" transform="translate(6.570324, 10.651890)">
                            <path d="M18.655385,14.5202763 L17.8989655,28.0656841 C17.8900354,28.2255987 18.0124325,28.3624744 18.172347,28.3714045 C18.1777316,28.3717052 18.1831235,28.3718556 18.1885165,28.3718556 C18.3626936,28.3718556 18.5086267,28.2400699 18.5263264,28.0667945 L19.9100741,14.5202763 L19.9100741,14.5202763 L18.655385,14.5202763 Z" id="Path-28-Copy-6" fill="#D7DCFE" transform="translate(18.904998, 21.446066) scale(-1, 1) translate(-18.904998, -21.446066) "></path>
                            <path d="M10.7104997,14.5202763 L9.9540802,28.0656841 C9.94515005,28.2255987 10.0675471,28.3624744 10.2274617,28.3714045 C10.2328463,28.3717052 10.2382382,28.3718556 10.2436312,28.3718556 C10.4178082,28.3718556 10.5637414,28.2400699 10.5814411,28.0667945 L11.9651888,14.5202763 L11.9651888,14.5202763 L10.7104997,14.5202763 Z" id="Path-28" fill="#B5BFFF" transform="translate(10.960113, 21.446066) scale(-1, 1) translate(-10.960113, -21.446066) "></path>
                            <path d="M10.6507526,14.5202763 L9.85916322,28.0511531 C9.8493898,28.2182132 9.97689581,28.361565 10.1439559,28.3713384 C10.1498484,28.3716832 10.1557497,28.3718556 10.1616522,28.3718556 C10.3443505,28.3718556 10.4976457,28.2340896 10.5170856,28.0524285 L11.9651888,14.5202763 L11.9651888,14.5202763 L10.6507526,14.5202763 Z" id="Path-28-Copy-8" fill="#D7DCFE"></path>
                            <path d="M1.80674039,14.5202763 L1.04934342,28.0652806 C1.04039034,28.2253941 1.1629301,28.3624497 1.32304364,28.3714028 C1.32844203,28.3717046 1.3338478,28.3718556 1.33925463,28.3718556 C1.51366803,28.3718556 1.65980507,28.2399035 1.67755198,28.0663953 L3.06308833,14.5202763 L3.06308833,14.5202763 L1.80674039,14.5202763 Z" id="Path-28-Copy-7" fill="#B5BFFF"></path>
                            <path d="M10.7924708,0 L19.8361654,0 C20.6608677,-4.39888902e-16 21.3294209,0.668553286 21.3294209,1.49325556 C21.3294209,1.56628043 21.3240642,1.63920693 21.3133939,1.71144803 L19.4969324,14.0094383 C19.388742,14.7419199 18.7601324,15.2845014 18.0197038,15.2845014 L8.97600919,15.2845014 C8.15130692,15.2845014 7.48275363,14.6159481 7.48275363,13.7912458 C7.48275363,13.7182209 7.48811034,13.6452944 7.49878063,13.5730533 L9.3152422,1.27506309 C9.42343262,0.54258143 10.0520421,1.36014531e-16 10.7924708,0 Z" id="Rectangle" fill="#F8F9FF"></path>
                            <path d="M0.525404734,14.32922 L17.1341503,14.32922 L17.1341503,14.32922 L17.1341503,15.3800295 L0.525404734,15.3800295 C0.235231712,15.3800295 3.55359463e-17,15.1447978 0,14.8546248 C-3.55359463e-17,14.5644517 0.235231712,14.32922 0.525404734,14.32922 Z" id="Rectangle" fill="#B5BFFF"></path>
                            <path d="M10.1649654,14.2862933 L18.2150398,14.2862933 C18.9540447,14.2862933 19.5818958,13.7457419 19.6917153,13.0149424 L21.4488163,1.32222613 C21.5364685,0.738940766 21.1346783,0.195038468 20.551393,0.10738635 C20.4988588,0.0994918751 20.4458088,0.0955281334 20.3926848,0.0955281334 L20.3926848,0.0955281334 L20.3926848,0.0955281334 L21.1808515,0.0955281334 C21.8406133,0.0955281334 22.375456,0.630370763 22.375456,1.29013258 C22.375456,1.35488815 22.3701907,1.41953651 22.3597122,1.48343865 L20.286228,14.1284065 C20.1678692,14.8502073 19.5440926,15.3800295 18.8126521,15.3800295 L10.1649654,15.3800295 C9.86293853,15.3800295 9.61809735,15.1351883 9.61809735,14.8331614 C9.61809735,14.5311345 9.86293853,14.2862933 10.1649654,14.2862933 Z" id="Path-83" fill="#D7DCFE"></path>
                        </g>
                        <g id="Group-39">
                            <path d="M2.87785306,36.5964763 C2.90449583,37.2045459 2.45721157,37.6176328 1.53600028,37.835737 C1.10206766,37.9384741 0.455259307,38.1470035 0.159006142,38.405319 C-0.0295466523,38.569726 -0.0233095094,38.7873412 0.17771757,39.0581645 C0.196402419,39.0826049 0.225166536,39.0973921 0.25592327,39.097929 L4.33725688,39.1691689 L4.33725688,39.1691689 L4.33922003,37.1713023 L2.87785306,36.5964763 Z" id="Path-37-Copy" fill="url(#linearGradient-1)" transform="translate(2.180670, 37.882823) rotate(-1.000000) translate(-2.180670, -37.882823) "></path>
                            <path d="M13.0836361,20.2379281 L9.16813429,19.8795113 C7.13374189,19.6932874 5.27501106,21.0398215 4.81796465,23.0309368 L1.71984608,36.5278407 L1.71984608,36.5278407 L4.55858242,37.5008674 L9.60359314,24.8871909 L17.9266438,24.8438823 C19.5451475,23.2142381 20.3202013,21.9876812 20.2518052,21.1642115 C20.1834092,20.3407418 19.3389283,19.3129298 17.7183624,18.0807754 L13.0836361,20.2379281 Z" id="Path-82" fill="url(#linearGradient-2)"></path>
                            <polyline id="Path-85" stroke="#FFFFFF" stroke-width="0.5" opacity="0.200000003" points="10.9879055 24.203366 8.89979103 24.203366 4.10852119 37.4052019"></polyline>
                            <g id="Group-28-Copy-2" transform="translate(12.707752, 0.000000)">
                                <path d="M3.8835873,6.10524019 C2.17186711,6.62847035 0.966569437,7.16346538 0.267694276,7.71022529 C0.544558147,8.60408101 0.707199278,9.96776204 0.755617668,11.8012684 C0.174101834,13.9854061 0.119929433,16.1036813 0.593100466,18.1560939 L10.4825467,18.1560939 C10.1192042,12.9946046 10.3875799,9.51264836 11.2876739,7.71022529 C9.98222022,6.98169532 8.56713909,6.44670029 7.04243048,6.10524019 C5.51772186,5.7637801 4.46477414,5.7637801 3.8835873,6.10524019 Z" id="Path-48" fill="#E4E7FC"></path>
                                <path d="M3.64618184,8.50197019 C3.64618184,8.44380054 4.00465546,8.14715394 4.7216027,7.61203038 L5.77768408,8.5644336 L7.26999373,6.45130634 C6.94075927,6.00861384 6.4153114,5.75558401 5.86392686,5.77421375 L4.20509918,5.83026088 C3.85505536,5.84208788 3.53308721,6.0248937 3.3435559,6.31942456 L3.3435559,6.31942456 L3.3435559,6.31942456 C3.54530652,7.83262462 3.64618184,8.56013983 3.64618184,8.50197019 Z" id="Path-56" fill="url(#linearGradient-3)"></path>
                                <g id="Group" transform="translate(4.523647, 3.932033) scale(-1, 1) rotate(11.000000) translate(-4.523647, -3.932033) translate(2.023647, 0.432033)">
                                    <path d="M0.622583627,3.91740748 L0.963854929,4.83719915 C1.12310746,5.26641531 1.06334502,5.74629719 0.803683986,6.12334363 L0.803683986,6.12334363 L0.803683986,6.12334363 L3.22744063,6.68752215 L3.92882944,5.33357719 C3.63746479,5.29655672 3.39687762,5.08809271 3.31876044,4.80496451 L3.19629345,4.36109471 L3.19629345,4.36109471 L0.622583627,3.91740748 Z" id="Path-2" fill="#7D5151" transform="translate(2.275707, 5.302465) rotate(7.000000) translate(-2.275707, -5.302465) "></path>
                                    <path d="M3.36278061,4.58520768 L3.417555,5.26967815 C3.42366671,5.45328979 3.48280746,5.65182702 3.52392176,5.73274123 C2.92290081,5.62607828 1.66919598,5.05472205 1.31992583,4.16979096 L3.36278061,4.58520768 Z" id="Path" fill="url(#linearGradient-4)"></path>
                                    <path d="M0.513481598,3.26296944 C-0.378716627,1.44854705 -0.0960478268,0.410471207 1.361488,0.148741906 C2.81902382,-0.112987395 3.65263468,0.284190954 3.86232056,1.34027695 L3.85660168,1.89309481 L1.31743686,3.65636123 L0.513481598,3.26296944 Z" id="Path-31" fill="#4A253E"></path>
                                    <path d="M3.86660509,1.60819727 C3.91117005,1.99467262 3.92222313,2.14980982 3.96451647,2.55115904 C4.12634754,2.87641814 4.21646212,3.33254919 4.23486021,3.9195522 C4.25253164,4.48335828 3.8185371,4.95894934 3.25547145,4.99281159 L2.96363007,5.01036266 C2.54048206,5.0358104 2.12345863,4.89962228 1.79688847,4.62933769 L0.910961481,3.89610348 L0.910961481,3.89610348 L0.456185656,3.75427564 C0.24751811,3.68919991 0.105399453,3.49600887 0.105399453,3.27742938 C0.105399453,3.09606254 0.252426323,2.94903567 0.433793158,2.94903567 C0.446071233,2.94903567 0.458339645,2.94972426 0.470540606,2.95109818 L0.715137024,2.97864165 C0.839269004,2.99261989 0.950854849,3.06080546 1.01992824,3.16488719 L1.08423439,3.26178549 C1.11212755,3.30381568 1.1592183,3.32908136 1.20966199,3.32908136 C1.25426836,3.32908136 1.29042897,3.29292075 1.29042897,3.24831438 L1.29042897,2.75340951 L1.29042897,2.75340951 C1.36802489,2.59771941 1.42721013,2.46858316 1.4679847,2.36600075 C1.74310096,1.67385147 0.774765703,1.23898671 1.20290844,1.16573825 C1.63105117,1.09248979 2.30795894,1.55519148 3.01139207,1.43484518 C3.71482521,1.31449888 3.41442129,0.639462105 3.55340374,0.689645014 C3.69238619,0.739827924 3.72493893,0.887226404 3.86660509,1.60819727 Z" id="Path" fill="#7D5151"></path>
                                    <path d="M3.41639538,2.08876986 L3.74101027,2.08830337 C3.81638121,2.08819505 3.87756924,2.14920747 3.87767755,2.22457841 C3.87767774,2.22470851 3.87767774,2.22483861 3.87767756,2.2249687 C3.87756992,2.30061874 3.81627085,2.36191869 3.74062081,2.3620274 L3.41600592,2.3624939 C3.34063498,2.36260221 3.27944695,2.3015898 3.27933864,2.22621885 C3.27933845,2.22608875 3.27933845,2.22595866 3.27933864,2.22582856 C3.27944627,2.15017852 3.34074535,2.08887858 3.41639538,2.08876986 Z" id="Rectangle" fill="#4A253E" transform="translate(3.578508, 2.225399) rotate(-8.000000) translate(-3.578508, -2.225399) "></path>
                                    <path d="M2.16816255,2.27672621 L2.4928752,2.27614726 C2.56818587,2.27601298 2.62934607,2.33695548 2.62948035,2.41226615 C2.62948064,2.41242744 2.62948064,2.41258874 2.62948035,2.41275004 C2.62934677,2.48840686 2.56804877,2.54970592 2.49239195,2.54984082 L2.1676793,2.55041977 C2.09236864,2.55055405 2.03120843,2.48961154 2.03107416,2.41430088 C2.03107387,2.41413958 2.03107387,2.41397828 2.03107415,2.41381698 C2.03120774,2.33816016 2.09250574,2.2768611 2.16816255,2.27672621 Z" id="Rectangle-Copy-2" fill="#4A253E" transform="translate(2.330277, 2.413284) rotate(-10.000000) translate(-2.330277, -2.413284) "></path>
                                    <ellipse id="Oval" fill="#4A253E" cx="2.38824916" cy="2.7585528" rx="1" ry="1"></ellipse>
                                    <ellipse id="Oval-Copy-13" fill="#4A253E" cx="3.57766883" cy="2.6207475" rx="1" ry="1"></ellipse>
                                    <path d="M3.13519257,2.61684797 L3.2861943,3.57795707 C3.29643434,3.64313374 3.2518994,3.70427105 3.18672273,3.71451109 C3.18177085,3.71528909 3.1767749,3.71575464 3.17176453,3.71590498 L3.03172944,3.72010699 L3.03172944,3.72010699" id="Path-17" stroke="#4A253E" stroke-width="0.5"></path>
                                    <path d="M2.71157563,3.87831842 C2.79895293,3.97831842 2.92139714,4.00331842 3.07890829,3.95331842" id="Path-18" stroke="#4A253E" stroke-width="0.5" stroke-linecap="round"></path>
                                    <path d="M0.80599745,3.65512315 C0.7152855,3.57997431 0.7152855,3.48812014 0.80599745,3.37956064 C0.942065375,3.21672139 0.462993317,3.08865341 0.462993317,3.32610818 C0.462993317,3.48441135 0.577328028,3.59408301 0.80599745,3.65512315 Z" id="Path-5" fill="url(#linearGradient-5)"></path>
                                </g>
                                <polygon id="Path-54" fill="url(#linearGradient-6)" points="4.20369814 8.01465639 4.43054444 8.48005866 4.03643086 10.9233076 4.39525901 12.9655329 5.31180408 10.8376113 4.91737189 8.48005866 5.19349567 8.01465639 5.01197084 7.83101002 4.43054444 7.83101002"></polygon>
                                <path d="M7.00227438,6.04618159 L4.40557346,12.8245333 L3.40585719,6.22921376 C1.86474756,6.77541959 0.818693257,7.2690901 0.267694276,7.71022529 L0.632310613,11.722692 C0.147245679,13.6757683 -0.034789944,15.3565958 0.0862037441,16.7651744 C0.207197432,18.173753 0.340641873,19.4126543 0.486537067,20.4818783 L3.80327107,21.2071399 L4.40557346,19.3702718 L4.95118561,21.2071399 L10.6685097,19.7379021 C10.5367389,15.5475483 10.5367389,12.7575055 10.6685097,11.3677735 C10.8002805,9.97804163 11.0066686,8.75885887 11.2876739,7.71022529 C10.5149677,7.18150271 9.70852595,6.79524213 8.86834864,6.55144355 C8.02817133,6.30764496 7.40614658,6.13922431 7.00227438,6.04618159 Z" id="Path-51" fill="#29305D"></path>
                                <path d="M7.62482956,6.20283406 L7.62482956,9.4136757 L6.5527814,9.60010995 L7.16166706,11.0238478 L4.38435127,13.9459149 L4.38435127,12.6845265 L4.40557346,12.8245333 L7.00227438,6.04618159 C7.17149467,6.085166 7.37901306,6.13738348 7.62482956,6.20283406 L7.62482956,6.20283406 Z" id="Path" fill="url(#linearGradient-7)"></path>
                                <polygon id="Path-55" fill="url(#linearGradient-8)" points="2.7169094 6.37741702 2.28153834 9.24277619 2.9160964 9.4136757 2.40397212 10.6291774 4.40557346 15.4711065 4.40557346 12.8245333 3.40585719 6.22921376"></polygon>
                                <path d="M4.38435127,19.1342225 C4.38435127,19.8598932 4.39142533,18.1304573 4.40557346,13.9459149" id="Path-58" stroke="#FFFFFF" stroke-width="0.5" opacity="0.200000003"></path>
                                <ellipse id="Oval" fill="#24273D" cx="4.85935244" cy="14.3074643" rx="1" ry="1"></ellipse>
                                <ellipse id="Oval-Copy-16" fill="#24273D" cx="4.85935244" cy="17.0656118" rx="1" ry="1"></ellipse>
                            </g>
                            <g id="Group-44" transform="translate(8.434804, 11.877968) scale(-1, 1) translate(-8.434804, -11.877968) translate(2.434804, 4.877968)">
                                <path d="M11.0112394,3.74300407 L10.7349272,2.74506319 C10.5960262,2.24340233 10.2280846,1.8369685 9.74267142,1.64900259 L9.74267142,1.64900259 L9.74267142,1.64900259 L9.00269118,0.207015308 C8.94241069,0.0895477134 8.8028456,0.0369760565 8.68004632,0.085480795 C8.55627002,0.13437145 8.48800916,0.267532811 8.52057734,0.396568403 L8.89645776,1.88581206 L8.89645776,1.88581206 L8.66371308,2.1219832 C8.12342889,2.67022142 8.12987691,3.55264318 8.67811513,4.09292736 C8.79123538,4.20440641 8.92257786,4.29573041 9.0664691,4.36295452 L9.74267142,4.67886742 L9.74267142,4.67886742 L11.0112394,3.74300407 Z" id="Path-89" fill="#7D5151" transform="translate(9.636960, 2.373178) scale(-1, 1) translate(-9.636960, -2.373178) "></path>
                                <path d="M10.2095211,2.08126979 C9.84832071,1.78965755 9.54366329,1.74006886 9.11141794,2.08126979 C8.67917259,2.42247072 8.39256238,2.81401842 8.53586748,2.96602866 C8.63140422,3.06736882 8.91626726,2.96687023 9.3904566,2.66453291 C9.47529923,3.32721363 9.59770128,3.77391799 9.75766275,4.00464601 C9.91762423,4.23537403 10.2208709,3.98970622 10.6674029,3.26764259 C10.6029486,2.67113555 10.4503213,2.27567795 10.2095211,2.08126979 Z" id="Path-90" fill="url(#linearGradient-9)" transform="translate(9.583003, 2.966029) scale(-1, 1) translate(-9.583003, -2.966029) "></path>
                                <polygon id="Path-53" fill="#E4E7FC" points="7.4662778 4.3954436 8.26846455 3.3847126 10.0545874 4.70904038 9.28257698 5.97302224"></polygon>
                                <circle id="Oval" fill="#24273D" cx="9.40751003" cy="4.92774335" r="1"></circle>
                                <path d="M1.11855009,2.58830964 C1.74214785,3.02483534 2.15369594,3.55348171 2.35319437,4.17424876 C2.55269281,4.7950158 3.01399685,6.34855798 3.73710649,8.83487529 L7.49846636,4.17424876 L9.75593632,5.72717501 L5.82646119,11.6088117 C5.18700266,12.5659529 4.11189944,13.1406489 2.96080145,13.1406489 C1.85750183,13.1406489 0.874816195,12.4430506 0.510906753,11.4014941 L0,9.93921199 L0,9.93921199 C0.148557424,7.959067 0.297019227,6.48147708 0.445385409,5.50644224 C0.59375159,4.5314074 0.818139817,3.55869653 1.11855009,2.58830964 Z" id="Path-52" fill="#29305D"></path>
                            </g>
                            <path d="M23.7306755,8.8592731 C23.5806033,9.62244956 23.4624652,10.4586164 23.3762613,11.3677735 C23.2733533,12.4531016 23.2508125,14.3924819 23.308639,17.1859146 C22.4801694,18.5981454 20.8211868,19.3290428 19.2000066,18.9567176 L12.8596893,17.5005807 C12.8373842,17.2608117 12.8154729,17.0156762 12.7939553,16.7651744 C12.7439925,16.1835194 12.7457014,15.5554413 12.7990822,14.88094 L19.869759,15.517293 L22.7816126,8.35281618 L23.7306755,8.8592731 Z" id="Path" fill="#24273D" opacity="0.469401042"></path>
                            <path d="M11.9095397,13.1770304 L10.4534463,13.0265924 C9.92869452,12.9723771 9.40514443,13.1397766 9.009189,13.4883781 L8.27552717,14.1342983 C8.00422234,14.3731566 7.97791928,14.7867256 8.21677764,15.0580304 C8.22234815,15.0643577 8.22804038,15.0705766 8.23385115,15.0766839 C8.51618192,15.3734224 8.95244938,15.4649473 9.33023309,15.3066948 L9.99058449,15.0300755 L9.99058449,15.0300755 L10.228626,15.0300755 C10.794557,15.0300755 11.3512278,14.886427 11.8464941,14.6125857 L11.8464941,14.6125857 L11.8464941,14.6125857 L11.9095397,13.1770304 Z" id="Path-92" fill="#7D5151"></path>
                            <polygon id="Path-91" fill="#E4E7FC" points="13.6669646 13.4738981 11.9100331 13.1406489 11.547843 15.1818386 13.4963441 15.5695359"></polygon>
                            <circle id="Oval" fill="#24273D" cx="12.1949204" cy="14.78323" r="1"></circle>
                            <path d="M22.7816126,6.95911099 L23.8690365,7.53940268 C25.3669384,8.33874146 25.9747069,10.1723899 25.2507838,11.7081595 L23.4656622,15.4952126 C22.7086199,17.1012431 20.9365038,17.9646634 19.2051747,17.5710313 L12.7577225,16.1051494 L12.7577225,16.1051494 L13.2459426,13.2401993 L19.869759,14.1235878 L22.7816126,6.95911099 Z" id="Path-87" fill="#29305D"></path>
                            <path d="M12.1344696,37.150231 C12.1344696,37.7074997 12.1344696,38.0476905 12.1344696,38.1708033 C12.1344696,38.2939162 12.1344696,38.5808201 12.1344696,39.0315151 L14.8430962,39.0315151 C15.0534742,38.6635664 15.0534742,38.3495531 14.8430962,38.0894753 C14.5275292,37.6993585 13.6634315,37.788275 13.5676746,37.150231 C13.5038368,36.7248684 13.0261017,36.7248684 12.1344696,37.150231 Z" id="Path-47" fill="url(#linearGradient-10)" transform="translate(13.567675, 37.931362) scale(-1, 1) translate(-13.567675, -37.931362) "></path>
                            <path d="M11.854112,21.9681945 L9.95459019,35.3515039 L9.95459019,35.3515039 L12.9986965,36.2197146 L16.5349589,24.5870385 L19.955431,25.6207795 C22.0079676,26.2411007 24.1747469,25.0800607 24.7950681,23.0275241 C24.8897433,22.7142602 24.9444311,22.3902829 24.9578306,22.0632994 L24.977432,21.584971 L24.977432,21.584971 L22.1412774,21.5311198 L17.0646013,19.1508149 C15.2227428,18.2872213 13.0295406,19.0802617 12.165947,20.9221202 C12.0106248,21.2533889 11.905526,21.6059508 11.854112,21.9681945 Z" id="Path-82-Copy" fill="url(#linearGradient-11)" transform="translate(17.466011, 27.510636) rotate(-16.000000) translate(-17.466011, -27.510636) "></path>
                            <path d="M14.9053327,37.5008674 L15.0423312,24.1715706 L19.6110521,24.1715706 C21.3154368,24.1715706 22.6971136,22.7898938 22.6971136,21.0855091 C22.6971136,20.9812446 22.6918296,20.8770472 22.6812821,20.7733176 L22.5923194,19.8984195 L22.5923194,19.8984195" id="Path-84" stroke="#FFFFFF" stroke-width="0.5" opacity="0.200000003"></path>
                        </g>
                    </g>
                    <g id="Chat-1" transform="translate(52.363495, 15.330757)">
                        <path d="M2.46500818,0 L6.09632369,0 C7.45771012,6.3809579e-16 8.56133188,1.10362176 8.56133188,2.46500818 C8.56133188,3.82639461 7.45771012,4.93001637 6.09632369,4.93001637 L5.82278528,4.93001637 L5.82278528,4.93001637 L5.82278528,5.97302224 L4.81644011,4.93001637 L2.46500818,4.93001637 C1.10362176,4.93001637 1.66721753e-16,3.82639461 0,2.46500818 C-1.66721753e-16,1.10362176 1.10362176,6.9417184e-16 2.46500818,0 Z" id="Rectangle" fill="#C7D97D"></path>
                        <circle id="Oval" fill="#FFFFFF" cx="2.14033297" cy="2.43898408" r="1"></circle>
                        <circle id="Oval-Copy-14" fill="#FFFFFF" cx="4.13134038" cy="2.43898408" r="1"></circle>
                        <circle id="Oval-Copy-15" fill="#FFFFFF" cx="6.12234779" cy="2.43898408" r="1"></circle>
                    </g>
                    <g id="Desk-1" transform="translate(18.317268, 38.028242)">
                        <path d="M39.8066929,0.995503706 L38.1493774,21.7305712 C38.1383709,21.868276 38.2410802,21.9888302 38.3787849,21.9998367 C38.3854147,22.0003666 38.392063,22.0006319 38.3987139,22.0006319 C38.5527855,22.0006319 38.6820571,21.8844436 38.6984349,21.731245 L40.9152023,0.995503706 L40.9152023,0.995503706 L39.8066929,0.995503706 Z" id="Path-28-Copy-3" fill="#29305D" transform="translate(39.521497, 11.498068) scale(-1, 1) translate(-39.521497, -11.498068) "></path>
                        <path d="M26.7655943,0.995503706 L25.1082789,21.7305712 C25.0972724,21.868276 25.1999816,21.9888302 25.3376864,21.9998367 C25.3443162,22.0003666 25.3509644,22.0006319 25.3576154,22.0006319 C25.511687,22.0006319 25.6409585,21.8844436 25.6573363,21.731245 L27.8741038,0.995503706 L27.8741038,0.995503706 L26.7655943,0.995503706 Z" id="Path-28-Copy-2" fill="#29305D" transform="translate(26.480399, 11.498068) scale(-1, 1) translate(-26.480399, -11.498068) "></path>
                        <rect id="Rectangle-Copy-3" fill="#B5BFFF" x="13.2401993" y="0" width="27.7745534" height="1.29415482" rx="0.298651112"></rect>
                        <path d="M1.6789009,0.995503706 L0.0215854503,21.7305712 C0.0105789648,21.868276 0.113288207,21.9888302 0.250992964,21.9998367 C0.257622752,22.0003666 0.264271037,22.0006319 0.270921969,22.0006319 C0.424993551,22.0006319 0.554265124,21.8844436 0.57064292,21.731245 L2.78741038,0.995503706 L2.78741038,0.995503706 L1.6789009,0.995503706 Z" id="Path-28" fill="#29305D"></path>
                        <path d="M14.6204491,0.995503706 L12.9631336,21.7305712 C12.9521271,21.868276 13.0548364,21.9888302 13.1925411,21.9998367 C13.1991709,22.0003666 13.2058192,22.0006319 13.2124702,22.0006319 C13.3665417,22.0006319 13.4958133,21.8844436 13.5121911,21.731245 L15.7289586,0.995503706 L15.7289586,0.995503706 L14.6204491,0.995503706 Z" id="Path-28-Copy" fill="#29305D"></path>
                        <g id="Path-29" transform="translate(0.298651, 0.000000)">
                            <mask id="mask-13" fill="white">
                                <use xlink:href="#path-12"></use>
                            </mask>
                            <use id="Mask" fill="#D7DCFE" xlink:href="#path-12"></use>
                            <path d="M1.47901263,5.10702591e-14 C1.16828071,0.936622184 1.27257872,1.43193696 1.79190667,1.48594433 C2.57089859,1.56695539 6.9804021,-1.29415482 6.9804021,5.10702591e-14 C6.9804021,1.29415482 5.52035424,1.48594433 7.58837009,1.48594433 C9.65638595,1.48594433 13.5136788,-1.71399468 12.4110037,0.399318948 C11.3083287,2.51263258 5.40761675,2.90528722 5.67753919,2.07753129 C5.94746164,1.24977535 6.09477662,0.0748998728 5.26899403,0.820927631 C4.44321144,1.56695539 2.83386353,3.18280761 6.22189817,3.50161558 C9.6099328,3.82042355 15.941219,-0.401789268 19.4494256,-0.752172075 C22.9576322,-1.10255488 21.8834453,2.08513196 20.8576825,1.82604367 C19.8319198,1.56695539 20.9288736,0.394090315 19.8709229,0.394090315 C18.8129721,0.394090315 14.3746886,1.3329025 18.1274653,3.00371874 C21.8802421,4.67453497 22.3988334,-1.45293769 25.1862438,-1.10255488 C27.0445174,-0.868966343 26.8485068,0.336096143 24.598212,2.51263258" stroke="#FFFFFF" stroke-width="0.5" mask="url(#mask-13)"></path>
                        </g>
                    </g>
                    <g id="Laptop-behind" transform="translate(50.646409, 36.247576) scale(-1, 1) translate(-50.646409, -36.247576) translate(45.146409, 33.747576)">
                        <rect id="Rectangle" fill="#92C4FF" x="0" y="3.93965297" width="4.60625958" height="1" rx="0.149325547"></rect>
                        <path d="M4.62579513,0 L9.63394229,0 C9.79888273,4.09190563e-16 9.93259338,0.133710649 9.93259338,0.298651094 C9.93259338,0.322672297 9.9296953,0.346605771 9.92396195,0.369932728 L9.02911629,4.01074206 C8.99630181,4.1442525 8.87658054,4.23811152 8.73909662,4.23811152 L3.73094946,4.23811152 C3.56600902,4.23811152 3.43229837,4.10440087 3.43229837,3.93946043 C3.43229837,3.91543923 3.43519645,3.89150575 3.4409298,3.8681788 L4.33577546,0.227369461 C4.36858993,0.0938590216 4.48831121,1.36277688e-16 4.62579513,0 Z" id="Rectangle-Copy" fill="url(#linearGradient-14)"></path>
                        <path d="M4.86508134,0 L9.8732285,0 C10.0381689,2.9816826e-16 10.1718796,0.133710649 10.1718796,0.298651094 C10.1718796,0.322672297 10.1689815,0.346605771 10.1632482,0.369932728 L9.2684025,4.01074206 C9.23558803,4.1442525 9.11586675,4.23811152 8.97838284,4.23811152 L3.97023567,4.23811152 C3.80529523,4.23811152 3.67158458,4.10440087 3.67158458,3.93946043 C3.67158458,3.91543923 3.67448266,3.89150575 3.68021601,3.8681788 L4.57506167,0.227369461 C4.60787615,0.0938590216 4.72759742,8.07665367e-17 4.86508134,0 Z" id="Rectangle" fill="url(#linearGradient-15)"></path>
                        <ellipse id="Oval" fill="#FFFFFF" transform="translate(7.195813, 2.098880) rotate(27.000000) translate(-7.195813, -2.098880) " cx="7.19581312" cy="2.09888003" rx="1" ry="1"></ellipse>
                    </g>
                    <g id="Man-6" transform="translate(6.769425, 22.996136)">
                        <g id="Group-32">
                            <g id="Group-33" transform="translate(5.574821, 0.000000)">
                                <rect id="Rectangle" fill="#29305D" x="3.61862019" y="2.68786001" width="1" height="1" rx="0.149325547"></rect>
                                <path d="M3.97097167,2.19010815 C4.07123704,2.71503348 4.14853184,3.08463115 4.20285608,3.29890117 C4.2795924,3.60157071 4.55930962,3.85499419 4.65442145,4.06413771 C4.69835757,4.16074983 4.65042789,4.22639721 4.5106324,4.26107987 C4.72327172,4.88696802 4.78715066,5.55943273 4.20759405,5.75712255 L3.53728191,5.89706717 L3.40687071,6.66987483 L1.27847223,6.53867237 L1.36104922,5.08396336 L2.70018779,2.19010815 L3.97097167,2.19010815 Z" id="Path-64" fill="#FFC4C4"></path>
                                <path d="M2.79914879,4.34536134 C2.6907348,4.25341429 2.6907348,4.14102772 2.79914879,4.00820162 C2.96176978,3.80896249 2.3892089,3.65226714 2.3892089,3.94280079 C2.3892089,4.13648989 2.52585553,4.27067674 2.79914879,4.34536134 Z" id="Path-5" fill="url(#linearGradient-16)"></path>
                                <path d="M3.44854715,2.75935921 L3.44854715,3.50279695 L3.44854715,4.11348815 C3.44854715,4.17945506 3.3950704,4.2329318 3.3291035,4.2329318 C3.25580123,4.2329318 3.18868869,4.19183146 3.15537297,4.12653762 L3.01091049,3.84341273 C2.91325458,3.65202172 2.68351763,3.56968278 2.48652013,3.65546844 C2.29113093,3.74055374 2.19858874,3.96539685 2.27747512,4.16337005 L2.27833046,4.16551662 C2.36701823,4.38808735 2.33579044,4.64054788 2.1955442,4.83480092 L1.87688607,5.27616964 L1.87688607,5.27616964 L1.36104922,5.27616964 L0.482069261,3.80813993 L2.42073436,1.6923563 L4.0658826,1.6923563 L3.44854715,2.75935921 Z" id="Path-65" fill="url(#linearGradient-17)"></path>
                                <path d="M3.31539904,0.766163452 C3.01005291,1.11022302e-16 2.60061144,-0.191540863 2.08707463,0.191540863 C1.31676942,0.766163452 0,2.11303934 0,2.84926944 C0,3.58549955 0.334948044,4.21394424 1.73240195,3.82098337 C3.12985586,3.42802249 4.01417813,2.72477538 4.14896423,1.68259009 C4.23882162,0.987799902 3.96096656,0.682324355 3.31539904,0.766163452 Z" id="Path-66" fill="#29305D"></path>
                                <path d="M4.20759405,5.75712255 C3.94053143,5.79764461 3.71709405,5.76950309 3.53728191,5.67269797 C3.35746976,5.57589286 3.18486937,5.44371675 3.01948073,5.27616964 L3.4487261,6.48039275 L3.53728191,5.89706717 L4.20759405,5.75712255 Z" id="Path-88" fill="url(#linearGradient-18)"></path>
                            </g>
                            <path d="M4.69451424,7.36676304 C3.65905403,7.53263616 2.91515736,7.86536106 2.46282423,8.36493776 C2.08996441,8.77674064 1.33135968,10.348884 0.18701006,13.0813679 C-0.248229859,14.1206523 0.241438288,15.3159933 1.28072031,15.751239 C1.28697468,15.7538583 1.29324206,15.7564464 1.29952224,15.7590032 L1.29952224,15.7590032 L1.29952224,15.7590032 L3.76247955,15.7590032 L4.69451424,7.36676304 Z" id="Path-71" fill="#01D1B2"></path>
                            <polygon id="Path-100" fill="url(#linearGradient-19)" points="2.36131908 14.235703 2.90368635 10.4563605 1.17127799 14.235703"></polygon>
                            <path d="M3.77672517,7.58440621 C4.83644525,7.24018628 6.20905471,7.06807632 7.89455354,7.06807632 C9.58005236,7.06807632 11.0685107,7.39746724 12.3599286,8.0562491 L10.675117,14.3642961 C10.5980809,16.809054 10.3208952,18.1170741 9.8435597,18.2883567 C9.36622423,18.4596392 6.77805514,18.4596392 2.07905242,18.2883567 L2.06662199,18.2759406 C1.59704168,17.8069045 1.40765532,17.1260621 1.56758806,16.4819177 L3.77672517,7.58440621 L3.77672517,7.58440621 Z" id="Path-67" fill="#01D1B2"></path>
                            <path d="M26.2925117,33.5943753 C25.8074624,34.5943667 25.0855724,35.2077092 24.1268416,35.4344027 C23.6752356,35.5411857 22.5791453,35.8047226 22.2708304,36.0732284 C22.0742796,36.2444008 22.0811185,36.4710672 22.2913472,36.7532276 C22.3098582,36.7778317 22.3386564,36.7926038 22.3694412,36.7931412 L27.0347833,36.874575 L27.0347833,36.874575 L27.8004923,34.0234709 L26.2925117,33.5943753 Z" id="Path-37-Copy" fill="url(#linearGradient-20)" transform="translate(24.964433, 35.234475) scale(-1, 1) rotate(-1.000000) translate(-24.964433, -35.234475) "></path>
                            <path d="M11.3644248,23.330643 C11.3644248,23.330643 15.042561,27.2343388 22.3988334,35.0417305 L24.1208554,33.1857062 L16.710893,22.3988334 C13.1465809,23.0200398 11.3644248,23.330643 11.3644248,23.330643 Z" id="Path-69" fill="#B9937B"></path>
                            <path d="M2.07905242,18.2883567 L2.07905242,18.6976857 L1.73694112,21.9504434 C1.69149414,22.3825484 1.81713982,22.8152621 2.08694487,23.1558284 C2.35348888,23.4922784 2.75637205,23.6920993 3.18552281,23.7006981 L7.088651,23.7789046 L7.088651,23.7789046 L11.8667746,23.7789046 L13.1256514,20.8983532 L6.88465817,18.2883567 L2.07905242,18.2883567 Z" id="Path-72" fill="#4D61E5"></path>
                            <path d="M14.9273258,34.5793863 C14.9550672,35.2114594 14.4895725,35.6408428 13.5308417,35.8675363 C13.0792357,35.9743193 12.4060851,36.191066 12.0977701,36.4595717 C11.9012194,36.6307441 11.9080583,36.8574106 12.118287,37.139571 C12.1367979,37.164175 12.1655962,37.1789472 12.196381,37.1794845 L16.8617231,37.2609184 L16.8617231,37.2609184 L16.2837518,34.3964487 L14.9273258,34.5793863 Z" id="Path-37-Copy" fill="url(#linearGradient-21)" transform="translate(14.408518, 35.828684) scale(-1, 1) rotate(-1.000000) translate(-14.408518, -35.828684) "></path>
                            <path d="M4.69451424,18.2883567 L4.4056759,21.2232938 C4.33525222,21.9388811 4.63472482,22.6409559 5.1999638,23.0853991 C5.78775196,23.5475724 6.51379301,23.7988285 7.26152234,23.7988285 L14.0353145,23.7988285 L14.0353145,23.7988285 C13.7611058,24.5636342 13.5488371,25.5295524 13.3985084,26.696583 C13.2481797,27.8636136 12.8322917,30.4682177 12.1508444,34.5103951 L15.0241385,35.0417305 C16.8555325,28.1927651 17.9219156,24.2235182 18.2232878,23.1339896 C18.6753462,21.4996968 17.7940683,20.414204 14.3735005,19.7146499 C12.0931219,19.2482806 10.4216712,18.9290579 9.35914814,18.756982 L9.35914814,18.2883567 L4.69451424,18.2883567 Z" id="Path-68" fill="#D3B5A1"></path>
                            <path d="M7.3958471,18.9145704 L8.15829148,21.4205913 C8.39236695,22.1899563 9.0873332,22.7271935 9.89085175,22.759931 L15.3018461,22.9803892 L15.3018461,22.9803892 L12.7229985,34.643745" id="Path-103" stroke="#FFFFFF" stroke-width="0.5" opacity="0.200000003"></path>
                            <rect id="Rectangle" fill="#29305D" x="4.67886742" y="18.3172682" width="4.67886742" height="1"></rect>
                        </g>
                        <path d="M6.10729726,7.17036893 C6.21495276,6.71038481 6.40770615,6.48039275 6.68555743,6.48039275 C7.10233434,6.48039275 8.68200518,6.48039275 9.27386706,6.48039275 C9.66844165,6.48039275 9.93390931,6.77584951 10.07027,7.36676304 L6.10729726,7.17036893 Z" id="Path-70" fill="url(#linearGradient-22)"></path>
                        <path d="M19.8141467,7.51103797 L20.0856793,7.09939715 C20.4895651,6.48711007 21.0670611,6.00935209 21.7441768,5.727335 L21.851498,5.68263595 L21.851498,5.68263595 L22.3677005,5.13235726 C22.440243,5.05502608 22.5549469,5.03448854 22.6498144,5.08184522 C22.7387744,5.12625288 22.7761497,5.23345719 22.7340803,5.32354645 L22.3434722,6.16001215 L22.3434722,6.16001215 L22.1439016,6.35969047 L23.4789303,5.8385835 L23.9118683,5.31348592 C23.9855446,5.22412615 24.1103826,5.19600141 24.21526,5.24513484 C24.3141715,5.29147334 24.3576869,5.40854038 24.3130577,5.50823482 L24.0956616,5.99386317 C23.9044044,6.42110121 23.5569956,6.75901909 23.124625,6.93837166 L21.4364691,7.63863932 L21.4364691,7.63863932 L21.1540915,8.08810276 L19.8141467,7.51103797 Z" id="Path-86" fill="#FFC4C4"></path>
                        <path d="M11.4195058,7.62998156 C12.5301308,8.07165723 13.2203803,8.5187993 13.4902543,8.9714078 C13.7601283,9.42401629 14.5606313,11.2076274 15.8917634,14.3222411 L19.7001871,7.06807632 L21.83971,7.94388697 L18.6978281,15.9937747 C18.2937682,17.0290256 17.2961841,17.7105426 16.1848745,17.7105426 C15.0342574,17.7105426 13.9605098,17.1328463 13.3264831,16.1726744 L10.8282279,12.3893095 L10.8282279,12.3893095 L11.4195058,7.62998156 Z" id="Path-73" fill="#01D1B2"></path>
                    </g>
                    <g id="Laptop-front" transform="translate(26.082197, 33.747576)">
                        <path d="M4.16226609,1.41469585e-15 L9.17041325,1.41469585e-15 C9.33535369,1.71286411e-15 9.46906434,0.133710649 9.46906434,0.298651094 C9.46906434,0.322672297 9.46616626,0.346605771 9.46043291,0.369932728 L8.56558725,4.01074206 C8.53277278,4.1442525 8.4130515,4.23811152 8.27556759,4.23811152 L3.26742043,4.23811152 C3.10247998,4.23811152 2.96876933,4.10440087 2.96876933,3.93946043 C2.96876933,3.91543923 2.97166742,3.89150575 2.97740076,3.8681788 L3.87224643,0.227369461 C3.9050609,0.0938590216 4.02478217,1.49546239e-15 4.16226609,1.41469585e-15 Z" id="Rectangle-Copy-10" fill="url(#linearGradient-15)"></path>
                        <path d="M3.86361498,1.41469585e-15 L8.87176214,1.41469585e-15 C9.03670258,1.71286411e-15 9.17041323,0.133710649 9.17041323,0.298651094 C9.17041323,0.322672297 9.16751515,0.346605771 9.1617818,0.369932728 L8.26693614,4.01074206 C8.23412167,4.1442525 8.11440039,4.23811152 7.97691648,4.23811152 L2.96876931,4.23811152 C2.80382887,4.23811152 2.67011822,4.10440087 2.67011822,3.93946043 C2.67011822,3.91543923 2.6730163,3.89150575 2.67874965,3.8681788 L3.57359531,0.227369461 C3.60640979,0.0938590216 3.72613106,1.49546239e-15 3.86361498,1.41469585e-15 Z" id="Rectangle" fill="url(#linearGradient-14)"></path>
                        <polygon id="Rectangle-Copy-12" fill="#FFFFFF" points="3.90447434 0.298651112 8.85998299 0.298651112 7.94201976 3.78291408 2.98651112 3.78291408"></polygon>
                        <rect id="Rectangle" fill="url(#linearGradient-23)" x="0" y="3.98201483" width="8.56133188" height="1" rx="0.149325556"></rect>
                        <rect id="Rectangle-Copy-11" fill="url(#linearGradient-24)" x="5.17661927" y="3.98201483" width="3.3847126" height="1" rx="0.149325556"></rect>
                    </g>
                    <g id="Chair-behind" transform="translate(4.280666, 37.231839)">
                        <path d="M10.1780834,0.595494277 L11.3363163,8.47382371 C11.3866006,8.81585884 11.6800465,9.06931799 12.0257581,9.06931799 L16.834117,9.06931799 C17.0810186,9.06931799 17.2811719,9.26947129 17.2811719,9.51637289 C17.2811719,9.7632745 17.0810186,9.9634278 16.834117,9.9634278 L11.5730862,9.9634278 C11.1471284,9.9634278 10.7800578,9.66352688 10.6951242,9.24612257 L8.81371891,-1.06102189e-14 L8.81371891,-1.06102189e-14 L9.48864157,-1.06102189e-14 C9.83435321,-1.03406582e-14 10.1277991,0.253459145 10.1780834,0.595494277 Z" id="Rectangle" fill="#F8F9FF"></path>
                        <path d="M16.2827624,9.95503706 L14.6381965,22.8269485 C14.6215024,22.9576119 14.7138928,23.0770688 14.8445562,23.0937628 C14.854581,23.0950436 14.8646772,23.095686 14.8747835,23.095686 C15.0312743,23.095686 15.1649808,22.9828899 15.191341,22.8286352 L17.3912719,9.95503706 L17.3912719,9.95503706 L16.2827624,9.95503706 Z" id="Path-28-Copy-5" fill="#D7DCFE" transform="translate(16.013760, 16.525362) scale(-1, 1) translate(-16.013760, -16.525362) "></path>
                        <path d="M10.0110891,9.95503706 L8.36652312,22.8269485 C8.34982905,22.9576119 8.44221945,23.0770688 8.57288285,23.0937628 C8.58290769,23.0950436 8.59300381,23.095686 8.60311014,23.095686 C8.75960091,23.095686 8.8933075,22.9828899 8.91966762,22.8286352 L11.1195985,9.95503706 L11.1195985,9.95503706 L10.0110891,9.95503706 Z" id="Path-28-Copy-4" fill="#D7DCFE" transform="translate(9.742086, 16.525362) scale(-1, 1) translate(-9.742086, -16.525362) "></path>
                        <path d="M0.796495052,1.20249148e-14 L8.56206756,1.20249148e-14 C8.95482562,1.17307217e-14 9.28894188,0.286334049 9.3490795,0.674460788 L10.6264478,8.91856586 C10.7166542,9.50075597 11.2178286,9.93025704 11.8069657,9.93025704 L12.2932061,9.93025704 L12.2932061,9.93025704 L1.91317661,9.95347401 C1.51334568,9.95436831 1.17483024,9.65866566 1.12198025,9.26234199 L0.00707999694,0.901671925 C-0.0510584443,0.465690029 0.255244196,0.0651263514 0.691226092,0.00698791021 C0.726122722,0.00233442417 0.761289517,1.1698315e-14 0.796495052,1.20249148e-14 Z" id="Rectangle" fill="#B5BFFF"></path>
                        <path d="M9.62932243,9.95503706 L8.95999589,22.8251297 C8.95261853,22.9669847 9.06163425,23.0879615 9.20348931,23.0953389 C9.20793819,23.0955702 9.21239233,23.095686 9.21684721,23.095686 C9.37045338,23.095686 9.49887921,22.9788974 9.51342601,22.8259816 L10.7378319,9.95503706 L10.7378319,9.95503706 L9.62932243,9.95503706 Z" id="Path-28-Copy-6" fill="#8594F4"></path>
                        <path d="M2.16304464,9.95503706 L1.4937181,22.8251297 C1.48634073,22.9669847 1.59535645,23.0879615 1.73721152,23.0953389 C1.74166039,23.0955702 1.74611453,23.095686 1.75056942,23.095686 C1.90417559,23.095686 2.03260142,22.9788974 2.04714821,22.8259816 L3.27155412,9.95503706 L3.27155412,9.95503706 L2.16304464,9.95503706 Z" id="Path-28" fill="#8594F4"></path>
                    </g>
                    <g id="plant-2" transform="translate(37.920684, 22.854083)">
                        <path d="M1.50126303,7.90698184 L2.89496822,7.90698184 C3.22484913,7.90698184 3.52441749,8.17440315 3.56407289,8.50428406 L4.2940644,14.5768567 C4.3337198,14.9067376 3.91792749,15.1741589 3.36536628,15.1741589 L1.03086497,15.1741589 C0.478303768,15.1741589 0.0625114573,14.9067376 0.102166852,14.5768567 L0.832158365,8.50428406 C0.87181376,8.17440315 1.17138212,7.90698184 1.50126303,7.90698184 Z" id="Rectangle" fill="#B5BFFF"></path>
                        <rect id="Rectangle-Copy-18" fill="#D7DCFE" x="0.903960809" y="7.21012925" width="2.58830964" height="1" rx="0.5"></rect>
                        <line x1="2.68468399" y1="7.21012925" x2="2.94474341" y2="3.57654072" id="Path-113" stroke="#111B2A" stroke-width="0.5"></line>
                        <line x1="2.08738176" y1="7.21012925" x2="2.08738176" y2="4.67159479" id="Path-113-Copy" stroke="#111B2A" stroke-width="0.5"></line>
                        <g id="Group-69" transform="translate(1.832608, 2.190108)" fill="#F8A29B">
                            <path d="M0.995503706,1.6923563 L0.390054742,0.662673361 C0.304672835,0.51746493 0.353171814,0.330534528 0.498380244,0.24515262 C0.51677137,0.23433872 0.53624636,0.225484302 0.556485379,0.21873478 C0.706550347,0.168689527 0.868771732,0.249771526 0.918816985,0.399836494 C0.927005535,0.424390562 0.931828075,0.449941263 0.933152903,0.475790816 L0.995503706,1.6923563 L0.995503706,1.6923563 Z" id="Path-114" transform="translate(0.597302, 0.895953) rotate(-10.000000) translate(-0.597302, -0.895953) "></path>
                            <path d="M1.13739337,1.63530849 L1.06038138,0.420148665 C1.05123877,0.275888835 1.16077292,0.151531585 1.30503275,0.142388972 C1.32024179,0.141425083 1.33550596,0.141791382 1.35065126,0.143483693 C1.4859191,0.158598298 1.58332255,0.280507356 1.56820794,0.415775197 C1.56607569,0.434857728 1.56172063,0.453625692 1.55523139,0.471697194 L1.13739337,1.63530849 L1.13739337,1.63530849 Z" id="Path-114-Copy"></path>
                            <path d="M1.16191047,1.73485886 L1.62003875,0.711705979 C1.68545257,0.565615167 1.85691094,0.500213538 2.00300176,0.565627352 C2.01714572,0.571960471 2.03075895,0.579417805 2.04371051,0.587927626 C2.1594913,0.664001366 2.19168023,0.819530196 2.11560649,0.935310991 C2.10176785,0.956372769 2.08483432,0.975228885 2.06537627,0.991244205 L1.16191047,1.73485886 L1.16191047,1.73485886 Z" id="Path-114-Copy-2" transform="translate(1.659662, 1.137557) rotate(6.000000) translate(-1.659662, -1.137557) "></path>
                        </g>
                        <g id="Group-69-Copy" transform="translate(0.936655, 3.285162)" fill="#F8A29B">
                            <path d="M0.995503706,1.6923563 L0.390054742,0.662673361 C0.304672835,0.51746493 0.353171814,0.330534528 0.498380244,0.24515262 C0.51677137,0.23433872 0.53624636,0.225484302 0.556485379,0.21873478 C0.706550347,0.168689527 0.868771732,0.249771526 0.918816985,0.399836494 C0.927005535,0.424390562 0.931828075,0.449941263 0.933152903,0.475790816 L0.995503706,1.6923563 L0.995503706,1.6923563 Z" id="Path-114" transform="translate(0.597302, 0.895953) rotate(-10.000000) translate(-0.597302, -0.895953) "></path>
                            <path d="M1.13739337,1.63530849 L1.06038138,0.420148665 C1.05123877,0.275888835 1.16077292,0.151531585 1.30503275,0.142388972 C1.32024179,0.141425083 1.33550596,0.141791382 1.35065126,0.143483693 C1.4859191,0.158598298 1.58332255,0.280507356 1.56820794,0.415775197 C1.56607569,0.434857728 1.56172063,0.453625692 1.55523139,0.471697194 L1.13739337,1.63530849 L1.13739337,1.63530849 Z" id="Path-114-Copy"></path>
                            <path d="M1.16191047,1.73485886 L1.62003875,0.711705979 C1.68545257,0.565615167 1.85691094,0.500213538 2.00300176,0.565627352 C2.01714572,0.571960471 2.03075895,0.579417805 2.04371051,0.587927626 C2.1594913,0.664001366 2.19168023,0.819530196 2.11560649,0.935310991 C2.10176785,0.956372769 2.08483432,0.975228885 2.06537627,0.991244205 L1.16191047,1.73485886 L1.16191047,1.73485886 Z" id="Path-114-Copy-2" transform="translate(1.659662, 1.137557) rotate(6.000000) translate(-1.659662, -1.137557) "></path>
                        </g>
                        <line x1="1.54907231" y1="7.21012925" x2="1.15873445" y2="1.42893512" id="Path-113-Copy-2" stroke="#111B2A" stroke-width="0.5"></line>
                        <g id="Group-69-Copy-2" transform="translate(0.008007, 0.042503)" fill="#F8A29B">
                            <path d="M0.995503706,1.6923563 L0.390054742,0.662673361 C0.304672835,0.51746493 0.353171814,0.330534528 0.498380244,0.24515262 C0.51677137,0.23433872 0.53624636,0.225484302 0.556485379,0.21873478 C0.706550347,0.168689527 0.868771732,0.249771526 0.918816985,0.399836494 C0.927005535,0.424390562 0.931828075,0.449941263 0.933152903,0.475790816 L0.995503706,1.6923563 L0.995503706,1.6923563 Z" id="Path-114" transform="translate(0.597302, 0.895953) rotate(-10.000000) translate(-0.597302, -0.895953) "></path>
                            <path d="M1.13739337,1.63530849 L1.06038138,0.420148665 C1.05123877,0.275888835 1.16077292,0.151531585 1.30503275,0.142388972 C1.32024179,0.141425083 1.33550596,0.141791382 1.35065126,0.143483693 C1.4859191,0.158598298 1.58332255,0.280507356 1.56820794,0.415775197 C1.56607569,0.434857728 1.56172063,0.453625692 1.55523139,0.471697194 L1.13739337,1.63530849 L1.13739337,1.63530849 Z" id="Path-114-Copy"></path>
                            <path d="M1.16191047,1.73485886 L1.62003875,0.711705979 C1.68545257,0.565615167 1.85691094,0.500213538 2.00300176,0.565627352 C2.01714572,0.571960471 2.03075895,0.579417805 2.04371051,0.587927626 C2.1594913,0.664001366 2.19168023,0.819530196 2.11560649,0.935310991 C2.10176785,0.956372769 2.08483432,0.975228885 2.06537627,0.991244205 L1.16191047,1.73485886 L1.16191047,1.73485886 Z" id="Path-114-Copy-2" transform="translate(1.659662, 1.137557) rotate(6.000000) translate(-1.659662, -1.137557) "></path>
                        </g>
                    </g>
                    <g id="Case" transform="translate(15.032106, 52.761696)">
                        <rect id="Rectangle-Copy-4" fill="#B5BFFF" x="0" y="0.796402965" width="13.6384008" height="9.1586341"></rect>
                        <rect id="Rectangle" fill="#F8F9FF" x="2.58830964" y="0.796402965" width="13.6384008" height="9.1586341"></rect>
                        <line x1="1.31006223" y1="9.95503706" x2="1.31006223" y2="0.796402965" id="Path-41" stroke="#FFFFFF" stroke-width="0.5"></line>
                        <path d="M3.68336371,0.298651112 L4.77841779,0.298651112 C5.05331855,0.298651112 5.27616964,0.521502207 5.27616964,0.796402965 L5.27616964,0.796402965 L5.27616964,0.796402965 L3.18561186,0.796402965 C3.18561186,0.521502207 3.40846296,0.298651112 3.68336371,0.298651112 Z" id="Rectangle" fill="#29305D"></path>
                        <path d="M12.8419978,0.298651112 L13.9370519,0.298651112 C14.2119526,0.298651112 14.4348037,0.521502207 14.4348037,0.796402965 L14.4348037,0.796402965 L14.4348037,0.796402965 L12.344246,0.796402965 C12.344246,0.521502207 12.5670971,0.298651112 12.8419978,0.298651112 Z" id="Rectangle-Copy-5" fill="#29305D"></path>
                        <rect id="Rectangle" fill="#B5BFFF" x="6.86897557" y="0" width="4.18111557" height="1"></rect>
                    </g>
                    <rect id="Rectangle" fill="#F3F7FC" x="6.86897557" y="0" width="19.9100741" height="6.37122372" rx="3.18561186"></rect>
                </g>
            </g>
        </g>
    </g>
</svg>