<?xml version="1.0" encoding="UTF-8"?>
<svg width="93px" height="15px" viewBox="0 0 93 15" version="1.1" xmlns="http://www.w3.org/2000/svg" xmlns:xlink="http://www.w3.org/1999/xlink">
    <!-- Generator: sketchtool 64 (101010) - https://sketch.com -->
    <title>92D4F274-355C-4B84-875F-34C64B7451AD</title>
    <desc>Created with sketchtool.</desc>
    <defs>
        <polygon id="path-1" points="0 0.00341360976 15.0310524 0.00341360976 15.0310524 14.9566778 0 14.9566778"></polygon>
        <path d="M0.00623040909,7.04413213 C0.00623040909,10.9307979 3.17334596,14.0815351 7.08022054,14.0815351 L7.08022054,14.0815351 C10.987068,14.0815351 14.1542107,10.9307979 14.1542107,7.04413213 L14.1542107,7.04413213 C14.1542107,3.15752088 10.987068,0.00678362984 7.08022054,0.00678362984 L7.08022054,0.00678362984 C3.17334596,0.00678362984 0.00623040909,3.15752088 0.00623040909,7.04413213" id="path-3"></path>
        <linearGradient x1="49.999962%" y1="84.8101095%" x2="49.999962%" y2="-24.5244399%" id="linearGradient-5">
            <stop stop-color="#0275AF" offset="0%"></stop>
            <stop stop-color="#FFFFFF" offset="100%"></stop>
        </linearGradient>
    </defs>
    <g id="Desktop" stroke="none" stroke-width="1" fill="none" fill-rule="evenodd">
        <g id="Provisional-Fixed-Deposit-Certificate-" transform="translate(-32.000000, -12.000000)">
            <g id="Paisabazaar-Logo" transform="translate(32.000000, 12.000000)">
                <g id="Group-16" transform="translate(77.882514, 0.000000)">
                    <g id="Group-3" transform="translate(0.000000, 0.023838)">
                        <g id="Fill-1-Clipped">
                            <mask id="mask-2" fill="white">
                                <use xlink:href="#path-1"></use>
                            </mask>
                            <g id="path-1"></g>
                            <path d="M15.0310524,7.48003619 C15.0310524,11.609278 11.6662234,14.956686 7.51554662,14.956686 C3.36481541,14.956686 -1.36035133e-05,11.609278 -1.36035133e-05,7.48003619 C-1.36035133e-05,3.35082164 3.36481541,0.00341360976 7.51554662,0.00341360976 C11.6662234,0.00341360976 15.0310524,3.35082164 15.0310524,7.48003619" id="Fill-1" fill="#0375AF" fill-rule="nonzero" mask="url(#mask-2)"></path>
                        </g>
                    </g>
                    <g id="Group-6" transform="translate(0.435312, 0.459734)">
                        <g id="Fill-4-Clipped">
                            <mask id="mask-4" fill="white">
                                <use xlink:href="#path-3"></use>
                            </mask>
                            <g id="path-3"></g>
                            <path d="M7.08022054,14.0815351 C10.987068,14.0815351 14.1542107,10.9307979 14.1542107,7.04413213 C14.1542107,3.15752088 10.987068,0.00678362984 7.08022054,0.00678362984 C3.17334596,0.00678362984 0.00623040909,3.15752088 0.00623040909,7.04413213 C0.00623040909,10.9307979 3.17334596,14.0815351 7.08022054,14.0815351 Z" id="Fill-4" fill="url(#linearGradient-5)" fill-rule="nonzero" mask="url(#mask-4)"></path>
                        </g>
                    </g>
                    <g id="Group-15" transform="translate(1.346809, 0.527843)" fill-rule="nonzero">
                        <path d="M6.14229748,9.12873068 C2.76568782,9.12873068 0.0283888703,7.13243646 0.0283888703,4.6698971 C0.0283888703,2.20735773 3.07861503,0.0067645594 6.14229748,0.0067645594 C9.20597992,0.0067645594 12.2562333,2.20735773 12.2562333,4.6698971 C12.2562333,7.13243646 9.51893433,9.12873068 6.14229748,9.12873068 Z" id="Fill-7" fill="#0391C4" opacity="0.600000024"></path>
                        <path d="M3.64655063,8.51649855 L4.0955754,8.37706635 C4.18315482,8.69080242 4.16949689,8.97418924 4.0544928,9.22714508 C3.9395159,9.4801554 3.74316279,9.67039671 3.46540625,9.79789626 C3.11742838,9.95765211 2.78555707,9.97217289 2.46979232,9.84154034 C2.15400036,9.7108533 1.89882566,9.43299691 1.70415939,9.00780771 C1.57827247,8.73292086 1.51362858,8.4714923 1.5102277,8.22352202 C1.50679961,7.97557899 1.57446349,7.75738585 1.71319212,7.56894261 C1.85194795,7.38047212 2.0306437,7.23602712 2.24936099,7.13563485 C2.52548511,7.00887087 2.7833261,6.97511619 3.02296559,7.03434354 C3.26257787,7.09359814 3.4660048,7.2405223 3.63332802,7.47511602 L3.24396826,7.73221287 C3.12575373,7.57954033 2.99624828,7.48328907 2.8553703,7.44351357 C2.71446511,7.40371082 2.57225398,7.41681494 2.42857367,7.48277144 C2.21148881,7.58242814 2.07077407,7.74131219 2.00648387,7.9594236 C1.94213925,8.17756225 1.98722129,8.45525518 2.14162117,8.79250238 C2.2981976,9.13454444 2.4774375,9.35303726 2.67931363,9.44795359 C2.88116257,9.54292441 3.08747345,9.54202537 3.29816466,9.44528373 C3.46731075,9.36761253 3.58479068,9.25084692 3.65057728,9.09487792 C3.71630945,8.93901789 3.71500352,8.74618844 3.64655063,8.51649855" id="Fill-9" fill="#FFFFFF"></path>
                        <path d="M4.56566385,7.68251256 C4.71494881,8.00856269 4.89775282,8.22010842 5.11407589,8.31712249 C5.33039895,8.41410933 5.54636833,8.41315581 5.76184798,8.31423468 C5.97569521,8.21604913 6.11632833,8.05283337 6.18377455,7.82458738 C6.25116635,7.59634139 6.20842412,7.31524303 6.05549342,6.98115607 C5.91132339,6.66627577 5.73064152,6.46056015 5.51352945,6.36390024 C5.29639017,6.26726757 5.08167231,6.26764898 4.86937589,6.3651262 C4.65389624,6.46402008 4.51206601,6.62682719 4.44393961,6.85346581 C4.37578601,7.08015892 4.4163789,7.35643519 4.56566385,7.68251256 M4.12273346,7.88588524 C3.9068457,7.4143821 3.8778158,7.00507586 4.03569818,6.65791202 C4.16800595,6.36896753 4.39137564,6.15224554 4.70583445,6.00788227 C5.05539033,5.84741809 5.39360088,5.83093578 5.7204933,5.95840808 C6.04735852,6.08593488 6.30340385,6.35188586 6.48852046,6.75623379 C6.63854,7.08386404 6.7074554,7.3641451 6.69526665,7.59696799 C6.68310511,7.82987262 6.60700706,8.04130937 6.46705411,8.23130549 C6.32701955,8.42124713 6.14614723,8.56721776 5.92430113,8.66905394 C5.56832441,8.83246042 5.22826378,8.8503049 4.90417367,8.72247843 C4.58005637,8.59467921 4.3196035,8.31584205 4.12273346,7.88588524" id="Fill-11" fill="#FFFFFF"></path>
                        <path d="M7.5930577,7.83328078 L6.42729104,5.28721286 L6.81276021,5.11026637 L6.97632887,5.46745581 C6.99904674,5.30617433 7.05925585,5.15715243 7.15701072,5.02039009 C7.25471114,4.88368224 7.3881616,4.77645185 7.55736211,4.69875341 C7.74568911,4.6123098 7.91804563,4.58059838 8.07443161,4.60356464 C8.23079043,4.62658539 8.36590052,4.69703707 8.47978913,4.81494691 C8.54481395,4.42533771 8.73852798,4.15652616 9.06095839,4.00848502 C9.31314034,3.89270017 9.53906751,3.87360248 9.73879429,3.95119195 C9.93849383,4.02878142 10.1049465,4.21297468 10.2381521,4.5038807 L11.0383651,6.2515508 L10.6098001,6.44833055 L9.87542799,4.84445161 C9.79636437,4.67183684 9.72551722,4.55398148 9.66283228,4.49088555 C9.60014728,4.42778962 9.52146456,4.38994841 9.4268113,4.37730743 C9.33218527,4.3646392 9.23535545,4.38101254 9.1364307,4.42642745 C8.95765336,4.50851209 8.83644605,4.63622959 8.77286321,4.80952545 C8.70922598,4.98284856 8.73749406,5.20052407 8.85750428,5.46263372 L9.53479602,6.94184643 L9.1038095,7.13971592 L8.34639306,5.48549101 C8.25856882,5.29366957 8.15760353,5.16597932 8.04347005,5.10231127 C7.92930939,5.03867047 7.79243081,5.04346533 7.63286158,5.11672308 C7.51151824,5.17240878 7.41403548,5.25591009 7.34035882,5.36706354 C7.26668224,5.47827148 7.23487724,5.60604347 7.24494383,5.75032501 C7.25498318,5.89471552 7.31307019,6.08272287 7.41917763,6.31445602 L8.02401705,7.63543853 L7.5930577,7.83328078 Z" id="Fill-13" fill="#FFFFFF"></path>
                    </g>
                </g>
                <path d="M36.6310107,5.01738316 C36.9731073,4.81661743 37.3417997,4.71624821 37.7372783,4.71624821 C38.3282368,4.71624821 38.770537,4.98910399 39.0638249,5.53470636 C39.35714,6.0804725 39.5037839,6.89903983 39.5037839,7.99051755 C39.5037839,9.02046892 39.3526212,9.79290519 39.0505134,10.3079355 C38.7483512,10.8229385 38.292794,11.0804536 37.6840869,11.0804536 C37.3641488,11.0804536 37.0374869,11.011994 36.7042919,10.8749656 C36.3709334,10.7379645 36.0287551,10.5324765 35.6777842,10.2583923 L35.6777842,5.92100637 C35.9709632,5.51947491 36.2886419,5.21828537 36.6310107,5.01738316 L36.6310107,5.01738316 Z M33.1360011,0.504043986 L33.1360011,0.94294435 L33.2623648,0.950068735 C33.7991247,0.987874382 34.1174294,1.06921794 34.2172246,1.19429049 C34.3170198,1.31936303 34.3669446,1.70039483 34.3669446,2.33757693 L34.3669446,11.767097 L35.4315356,11.767097 L35.5978882,10.8114739 L35.6777842,10.8114739 C35.9792659,11.1607599 36.3120799,11.4226698 36.6758995,11.5972036 C37.0395558,11.7717647 37.4321761,11.8591681 37.8535427,11.8591681 C38.7718436,11.8591681 39.5081122,11.4719399 40.0627024,10.6972108 C40.6171836,9.92259082 40.8943834,8.89274863 40.8943834,7.60784795 C40.8943834,6.45061299 40.6525992,5.52949272 40.1691669,4.84451445 C39.6856257,4.15961806 39.0356775,3.81712893 38.2195673,3.81712893 C37.7005561,3.81712893 37.2291286,3.95178254 36.805557,4.2208168 C36.3819855,4.49015133 36.0060249,4.89383922 35.6777842,5.43204423 L35.6777842,0.504043986 L33.1360011,0.504043986 Z" id="Fill-1" fill="#000000" fill-rule="nonzero"></path>
                <path d="M45.4144089,10.4800153 C44.8970582,10.8529127 44.448252,11.0393205 44.0679088,11.0393205 C43.6656247,11.0393205 43.3295441,10.8923834 43.0598576,10.5986186 C42.7900893,10.3047991 42.6552596,9.93512262 42.6552596,9.48967114 C42.6552596,8.89261487 42.8719453,8.4234973 43.3052622,8.08220921 C43.738552,7.74111216 44.3399092,7.57042718 45.1093068,7.57042718 L45.4144089,7.57042718 L45.4144089,10.4800153 Z M45.1424085,7.13859661 C43.6965487,7.13859661 42.6707488,7.39862303 42.0649816,7.91851211 C41.5344556,8.37228907 41.2690973,8.96317633 41.2690973,9.69101009 C41.2690973,10.3148169 41.4726348,10.8336414 41.8796827,11.2472652 C42.2867306,11.6608072 42.795697,11.8674962 43.4062825,11.8674962 C44.1672684,11.8674962 44.9373465,11.4581307 45.7162172,10.6392904 C45.8880141,11.4581307 46.2959059,11.8674962 46.9397292,11.8674962 C47.1873934,11.8674962 47.4682409,11.8084812 47.7821085,11.690342 L47.7423646,11.1657306 C47.5964284,11.2088591 47.4792929,11.230396 47.390822,11.230396 C47.1432395,11.230396 46.969646,11.1053234 46.8702047,10.8549054 C46.7706545,10.6045419 46.7209746,10.1722473 46.7209746,9.55818533 L46.7209746,6.12846247 C46.7209746,4.59317104 45.9382929,3.82551167 44.3730654,3.82551167 C43.5859737,3.82551167 42.732624,4.0403351 41.8129893,4.46970898 L41.8129893,5.87850845 L42.7017273,5.87850845 L42.7083149,5.74399132 C42.7570692,5.24847802 42.8719453,4.92040144 43.0531882,4.75992533 C43.3627003,4.49569525 43.7187073,4.36355291 44.121073,4.36355291 C44.983297,4.36355291 45.4144089,4.97005376 45.4144089,6.18289168 L45.4144089,7.13859661 L45.1424085,7.13859661 Z" id="Fill-4" fill="#000000" fill-rule="nonzero"></path>
                <path d="M48.873121,11.6896432 L55.1657171,11.6896432 L55.1657171,11.1680071 L53.1265305,11.1645405 L50.4624397,11.1645405 L55.0250348,4.41556365 L55.0250348,3.98269581 L49.0609515,3.98269581 L49.0609515,5.66454214 L49.7653978,5.66454214 L49.772176,5.51553056 C49.7810776,5.37367067 49.7855147,5.20331324 49.7855147,5.00462205 C49.7855147,4.71132119 49.8414011,4.5398173 49.9532283,4.49013768 C50.0650556,4.44045806 50.4497544,4.41556365 51.1071341,4.41556365 L53.4852869,4.41556365 L48.873121,11.2496783 L48.873121,11.6896432 Z" id="Fill-6" fill="#000000" fill-rule="nonzero"></path>
                <path d="M59.8910686,10.4800153 C59.3728468,10.8529127 58.9233329,11.0393205 58.5424724,11.0393205 C58.1393717,11.0393205 57.8027466,10.8923834 57.5325428,10.5986186 C57.2623662,10.3047991 57.1273188,9.93512262 57.1273188,9.48967114 C57.1273188,8.89261487 57.3443584,8.4234973 57.7784375,8.08220921 C58.212435,7.74111216 58.8148812,7.57042718 59.585422,7.57042718 L59.8910686,7.57042718 L59.8910686,10.4800153 Z M59.6186598,7.13859661 C58.1703501,7.13859661 57.1428352,7.39862303 56.5360608,7.91851211 C56.0045275,8.37228907 55.7387882,8.96317633 55.7387882,9.69101009 C55.7387882,10.3148169 55.9427068,10.8336414 56.3504625,11.2472652 C56.7581909,11.6608072 57.2679467,11.8674962 57.8796755,11.8674962 C58.641832,11.8674962 59.4132168,11.4581307 60.1933125,10.6392904 C60.365436,11.4581307 60.77409,11.8674962 61.4190839,11.8674962 C61.6670474,11.8674962 61.9483033,11.8084812 62.2628514,11.690342 L62.2230259,11.1657306 C62.0768719,11.2088591 61.9594098,11.230396 61.8708844,11.230396 C61.6227575,11.230396 61.4490278,11.1053234 61.3492327,10.8549054 C61.2497097,10.6045419 61.1998393,10.1722473 61.1998393,9.55818533 L61.1998393,6.12846247 C61.1998393,4.59317104 60.4158781,3.82551167 58.848119,3.82551167 C58.059639,3.82551167 57.2047377,4.0403351 56.2836057,4.46970898 L56.2836057,5.87850845 L57.1738681,5.87850845 L57.1804558,5.74399132 C57.2291828,5.24847802 57.3443584,4.92040144 57.5259279,4.75992533 C57.8359573,4.49569525 58.1924542,4.36355291 58.5955277,4.36355291 C59.4592216,4.36355291 59.8910686,4.97005376 59.8910686,6.18289168 L59.8910686,7.13859661 L59.6186598,7.13859661 Z" id="Fill-8" fill="#000000" fill-rule="nonzero"></path>
                <path d="M67.2787904,10.4800153 C66.7613853,10.8529127 66.3125519,11.0393205 65.9322631,11.0393205 C65.5300062,11.0393205 65.1938984,10.8923834 64.9242935,10.5986186 C64.6544708,10.3047991 64.5196139,9.93512262 64.5196139,9.48967114 C64.5196139,8.89261487 64.7362452,8.4234973 65.1695349,8.08220921 C65.6028518,7.74111216 66.204209,7.57042718 66.9736066,7.57042718 L67.2787904,7.57042718 L67.2787904,10.4800153 Z M67.0067628,7.13859661 C65.5608213,7.13859661 64.5351303,7.39862303 63.9292815,7.91851211 C63.3988371,8.37228907 63.1334788,8.96317633 63.1334788,9.69101009 C63.1334788,10.3148169 63.3369619,10.8336414 63.7440097,11.2472652 C64.1511121,11.6608072 64.6600513,11.8674962 65.2707184,11.8674962 C66.03165,11.8674962 66.8016463,11.4581307 67.5804899,10.6392904 C67.7523412,11.4581307 68.1602875,11.8674962 68.8041104,11.8674962 C69.0516931,11.8674962 69.3325678,11.8084812 69.6464901,11.690342 L69.6066645,11.1657306 C69.4607553,11.2088591 69.3435653,11.230396 69.2552034,11.230396 C69.0074035,11.230396 68.8340006,11.1053234 68.734586,10.8549054 C68.6349542,10.6045419 68.5852204,10.1722473 68.5852204,9.55818533 L68.5852204,6.12846247 C68.5852204,4.59317104 67.8025927,3.82551167 66.2373653,3.82551167 C65.4502735,3.82551167 64.5969239,4.0403351 63.6773163,4.46970898 L63.6773163,5.87850845 L64.5661088,5.87850845 L64.572642,5.74399132 C64.6213691,5.24847802 64.7362452,4.92040144 64.917488,4.75992533 C65.2270818,4.49569525 65.5829254,4.36355291 65.9854001,4.36355291 C66.8476784,4.36355291 67.2787904,4.97005376 67.2787904,6.18289168 L67.2787904,7.13859661 L67.0067628,7.13859661 Z" id="Fill-10" fill="#000000" fill-rule="nonzero"></path>
                <path d="M71.1818524,11.0108557 C71.0824928,11.1365561 70.7657669,11.2183364 70.2315931,11.2562239 L70.1057194,11.2634029 L70.1057194,11.7042413 L74.0265599,11.7042413 L74.0265599,11.2634029 L73.7417108,11.2562239 C73.2118925,11.2230859 72.8950305,11.1424248 72.7913426,11.0145134 C72.687573,10.8864656 72.6356338,10.5023766 72.6356338,9.86238294 L72.6356338,6.08602187 C73.055122,5.33217453 73.5915552,4.9552918 74.2451239,4.9552918 C74.4084004,4.9552918 74.5089034,4.99680978 74.5464695,5.07968194 C74.5839812,5.16274517 74.6269916,5.42462776 74.6756098,5.86554807 L74.6822791,5.99356863 L75.4174861,5.99356863 L75.4174861,3.88136575 C75.2540735,3.82922944 75.1061501,3.80316129 74.9736887,3.80316129 C74.0110435,3.80316129 73.2318733,4.3460886 72.6356338,5.43164296 L72.6356338,3.98088878 L70.1057194,3.98088878 L70.1057194,4.42186367 L70.2315931,4.42890617 C70.7657669,4.47167978 71.0824928,4.55463384 71.1818524,4.6779321 C71.2811848,4.80125768 71.3308374,5.1828354 71.3308374,5.82288364 L71.3308374,9.86238294 C71.3308374,10.5023766 71.2811848,10.8853465 71.1818524,11.0108557" id="Fill-12" fill="#000000" fill-rule="nonzero"></path>
                <path d="M3.44237348,5.02431371 C3.76644926,4.82316583 4.11573244,4.72252365 4.49030471,4.72252365 C5.04998534,4.72252365 5.46865695,4.99592536 5.74645563,5.54261958 C6.02417265,6.08947759 6.16303116,6.90951893 6.16303116,8.00318035 C6.16303116,9.03515169 6.01992605,9.80908924 5.73387915,10.3250749 C5.44766892,10.8410606 5.01636639,11.0991763 4.43980822,11.0991763 C4.13677492,11.0991763 3.82745336,11.0304983 3.51189802,10.8932242 C3.19623378,10.7559228 2.872158,10.5501072 2.53972512,10.2754499 L2.53972512,5.9297112 C2.81749658,5.52733355 3.11835215,5.22548889 3.44237348,5.02431371 L3.44237348,5.02431371 Z M-1.63330926e-05,3.99900272 L-1.63330926e-05,4.43874927 L0.126374582,4.44592825 C0.662562789,4.48848349 0.980649768,4.57124647 1.08039052,4.694108 C1.18007683,4.81710601 1.23000165,5.19775564 1.23000165,5.83611151 L1.20122818,14.5037318 L2.53468908,14.5037318 L2.53972512,10.8292139 C2.82950141,11.1792642 3.14914003,11.4417746 3.49877709,11.6167997 C3.84830528,11.7917975 4.22562694,11.8793374 4.63049708,11.8793374 C5.51294685,11.8793374 6.22038753,11.4913996 6.75336357,10.7150872 C7.28614905,9.93896597 7.5526507,8.90715842 7.5526507,7.61982835 C7.5526507,6.46030049 7.32025799,5.53735136 6.85569042,4.85106285 C6.39095946,4.16491082 5.76646367,3.82173927 4.98220301,3.82173927 C4.48339036,3.82173927 4.03050092,3.95658396 3.62358915,4.22624605 C3.21640515,4.49593543 2.85506269,4.90038762 2.53972512,5.43973909 L2.53972512,3.99900272 L-1.63330926e-05,3.99900272 Z" id="Fill-15" fill="#00669A" fill-rule="nonzero"></path>
                <path d="M12.5297033,10.4800153 C12.0124343,10.8529127 11.5636009,11.0393205 11.1833665,11.0393205 C10.7809736,11.0393205 10.444893,10.8923834 10.1752064,10.5986186 C9.90543809,10.3047991 9.77060841,9.93512262 9.77060841,9.48967114 C9.77060841,8.89261487 9.98729411,8.4234973 10.4205294,8.08220921 C10.8539008,7.74111216 11.4553397,7.57042718 12.2246011,7.57042718 L12.5297033,7.57042718 L12.5297033,10.4800153 Z M12.2578118,7.13859661 C10.8119247,7.13859661 9.78609763,7.39862303 9.18041213,7.91851211 C8.64983164,8.37228907 8.38447332,8.96317633 8.38447332,9.69101009 C8.38447332,10.3148169 8.5880653,10.8336414 8.99505876,11.2472652 C9.40218831,11.6608072 9.91104583,11.8674962 10.5216313,11.8674962 C11.2826717,11.8674962 12.0527498,11.4581307 12.8314844,10.6392904 C13.0033358,11.4581307 13.4112548,11.8674962 14.0551597,11.8674962 C14.3027422,11.8674962 14.5835625,11.8084812 14.8975117,11.690342 L14.8577134,11.1657306 C14.7118045,11.2088591 14.5946145,11.230396 14.5062253,11.230396 C14.2585884,11.230396 14.0850493,11.1053234 13.9854991,10.8549054 C13.8860305,10.6045419 13.8362963,10.1722473 13.8362963,9.55818533 L13.8362963,6.12846247 C13.8362963,4.59317104 13.0537234,3.82551167 11.4884959,3.82551167 C10.7014041,3.82551167 9.84797284,4.0403351 8.92836532,4.46970898 L8.92836532,5.87850845 L9.81707608,5.87850845 L9.82366376,5.74399132 C9.87236362,5.24847802 9.98729411,4.92040144 10.1686187,4.75992533 C10.4780491,4.49569525 10.8340016,4.36355291 11.2363946,4.36355291 C12.0985913,4.36355291 12.5297033,4.97005376 12.5297033,6.18289168 L12.5297033,7.13859661 L12.2578118,7.13859661 Z" id="Fill-18" fill="#00669A" fill-rule="nonzero"></path>
                <path d="M15.3787418,4.42880245 L15.5054866,4.43592684 C16.0437437,4.47840019 16.2805191,4.54631387 16.4100405,4.70930125 C16.6154291,4.96777177 16.6132242,5.18789072 16.6132242,5.82635577 L16.5762297,11.6932463 L17.9648693,11.6932463 L17.9188916,3.98894671 L15.3787418,3.98894671 L15.3787418,4.42880245 Z" id="Fill-20" fill="#00669A" fill-rule="nonzero"></path>
                <polygon id="Fill-22" fill="#00669A" fill-rule="nonzero" points="16.6132323 2.59136611 17.9278285 2.59136611 17.9278285 1.1937855 16.6132323 1.1937855"></polygon>
                <path d="M23.231494,11.010722 C22.9608547,11.2689468 22.6137764,11.3979501 22.1901505,11.3979501 C21.6677365,11.3979501 21.1882514,11.2704208 20.7711586,10.9859368 C20.1395307,10.5550343 19.4650828,9.3908387 19.4650828,9.3908387 L19.4650828,10.5491109 C20.1045779,11.450141 21.1594235,11.8297261 22.0772344,11.8297261 C22.9479243,11.8297261 23.65512,11.6137016 24.1987126,11.1814069 C24.7423595,10.7492489 25.0141966,10.1906261 25.0141966,9.50578424 C25.0141966,9.00975235 24.8752564,8.60352585 24.5975939,8.287023 C24.3152764,7.97526971 23.8186142,7.67296099 23.1080159,7.38009691 L22.458476,7.11076237 C21.7994901,6.84213755 21.3617088,6.6064596 21.1452953,6.40383771 C20.9240908,6.20593811 20.813543,5.94200829 20.813543,5.61218473 C20.813543,5.21163594 20.948781,4.87935569 21.2194748,4.61545316 C21.4900324,4.35144145 21.8301419,4.21957208 22.2396397,4.21957208 C22.6725756,4.21957208 23.0420573,4.33984045 23.3480034,4.58059554 C23.4515552,4.66554224 23.5267963,4.79645624 23.5739718,4.97350131 C23.6209022,5.15049179 23.6586316,5.47021565 23.6868334,5.93272748 L23.6868334,6.06014753 L24.4705496,6.06014753 L24.4705496,4.22664187 C23.6703914,3.93402343 22.8961756,3.78765962 22.1478205,3.78765962 C21.380628,3.78765962 20.7487278,3.99082745 20.2522563,4.3970539 C19.7556214,4.80333495 19.5074128,5.31822876 19.5074128,5.94168074 C19.5074128,6.47082332 19.6791825,6.91960501 20.0228035,7.2879712 C20.3663701,7.66119623 20.9216953,7.99653367 21.6889423,8.29406551 L22.4019907,8.57044251 C22.8631828,8.75046288 23.1856253,8.94459559 23.3691548,9.15297705 C23.5480293,9.3661627 23.6374803,9.6526394 23.6374803,10.0125164 C23.6374803,10.419862 23.5021878,10.7525244 23.231494,11.010722" id="Fill-24" fill="#00669A" fill-rule="nonzero"></path>
                <path d="M30.1622785,10.4800153 C29.644955,10.8529127 29.1961216,11.0393205 28.8158873,11.0393205 C28.4134943,11.0393205 28.0774137,10.8923834 27.8076999,10.5986186 C27.5380405,10.3047991 27.4031836,9.93512262 27.4031836,9.48967114 C27.4031836,8.89261487 27.6198149,8.4234973 28.0531046,8.08220921 C28.4864216,7.74111216 29.0877788,7.57042718 29.8571219,7.57042718 L30.1622785,7.57042718 L30.1622785,10.4800153 Z M29.8903325,7.13859661 C28.4444455,7.13859661 27.4187001,7.39862303 26.8129057,7.91851211 C26.2822707,8.37228907 26.0170485,8.96317633 26.0170485,9.69101009 C26.0170485,10.3148169 26.2205861,10.8336414 26.6275795,11.2472652 C27.0346818,11.6608072 27.5435394,11.8674962 28.154152,11.8674962 C28.9152469,11.8674962 29.6852706,11.4581307 30.4640596,10.6392904 C30.635911,11.4581307 31.0437756,11.8674962 31.6876805,11.8674962 C31.9353174,11.8674962 32.2160016,11.8084812 32.5300325,11.690342 L32.4902342,11.1657306 C32.3442436,11.2088591 32.2271353,11.230396 32.1386916,11.230396 C31.8910275,11.230396 31.7174884,11.1053234 31.6180743,10.8549054 C31.5186058,10.6045419 31.4687898,10.1722473 31.4687898,9.55818533 L31.4687898,6.12846247 C31.4687898,4.59317104 30.6862169,3.82551167 29.1210167,3.82551167 C28.3338977,3.82551167 27.4804936,4.0403351 26.5608861,4.46970898 L26.5608861,5.87850845 L27.4495968,5.87850845 L27.4561301,5.74399132 C27.5048571,5.24847802 27.6198149,4.92040144 27.8011122,4.75992533 C28.1105699,4.49569525 28.4665768,4.36355291 28.8688882,4.36355291 C29.7311121,4.36355291 30.1622785,4.97005376 30.1622785,6.18289168 L30.1622785,7.13859661 L29.8903325,7.13859661 Z" id="Fill-25" fill="#00669A" fill-rule="nonzero"></path>
            </g>
        </g>
    </g>
</svg>